mysite/Users/all_users/user_1/Bugs/Adder48bitTop/Adder48bitTop.vcd
$date
   Thu Mar 14 20:38:57 2019
$end
$version
  P.20131013
$end
$timescale
  1ps
$end
$scope module Adder48bitTest $end
$var wire 1 ! compareout512 $end
$var wire 1 " comcheck [23] $end
$var wire 1 # comcheck [22] $end
$var wire 1 $ comcheck [21] $end
$var wire 1 % comcheck [20] $end
$var wire 1 & comcheck [19] $end
$var wire 1 ' comcheck [18] $end
$var wire 1 ( comcheck [17] $end
$var wire 1 ) comcheck [16] $end
$var wire 1 * comcheck [15] $end
$var wire 1 + comcheck [14] $end
$var wire 1 , comcheck [13] $end
$var wire 1 - comcheck [12] $end
$var wire 1 . comcheck [11] $end
$var wire 1 / comcheck [10] $end
$var wire 1 0 comcheck [9] $end
$var wire 1 1 comcheck [8] $end
$var wire 1 2 comcheck [7] $end
$var wire 1 3 comcheck [6] $end
$var wire 1 4 comcheck [5] $end
$var wire 1 5 comcheck [4] $end
$var wire 1 6 comcheck [3] $end
$var wire 1 7 comcheck [2] $end
$var wire 1 8 comcheck [1] $end
$var wire 1 9 comcheck [0] $end
$var reg 36 : inab [35:0] $end
$var reg 48 ; inc [47:0] $end
$var reg 1 < incarry $end
$var reg 1 = inaddsub $end
$var reg 1 > enout $end
$upscope $end
$enddefinitions $end
#0
$dumpvars
b0 :
b0 ;
0<
0=
0>
0!
09
08
07
06
05
04
03
02
01
00
0/
0.
0-
0,
0+
0%
0(
0$
0#
0'
0&
0)
0*
0"
$end
#52000000
b100000000000000000000000000000000000 :
b101001010000110011101111100001011100000000000000 ;
1+
1'
1)
1*
1"
#54000000
b101100011101100110111100010100101000110011001111 ;
19
18
17
16
13
12
1/
1.
0+
1%
1(
1#
0'
0)
0"
#56000000
b101111101010011010001001000111110101100110011110 ;
09
15
03
11
0/
1-
1+
0#
1'
1&
1)
0*
#58000000
b110010110111001101010101111011000010011001101101 ;
19
08
05
14
13
02
01
10
1/
0.
0-
1,
0+
0%
0(
1$
1#
0)
1"
#60000000
b110110000100000000100010101110001111001100111100 ;
09
15
03
11
0/
1-
1+
1%
0#
0'
1*
#62000000
b111001010000110011101111100001011100000000001011 ;
19
18
07
05
04
01
00
0-
0,
0%
0$
1'
0&
1)
#64000000
b111100011101100110111100010100101000110011011010 ;
09
15
13
12
1/
1.
0+
1%
1(
1#
0'
0)
0"
#66000000
b111111101010011010001001000111110101100110101001 ;
19
08
05
14
03
11
0/
1-
1+
0#
1'
1&
1)
0*
#68000000
b10110111001101010101111011000010011001111000 ;
09
15
13
02
01
10
1/
0.
0-
1,
0+
0%
0(
1$
1#
0)
1"
#70000000
b110000100000000100010101110001111001101000111 ;
19
18
17
06
05
04
11
0/
1-
1+
1%
0#
0'
1*
#72000000
b1001010000110011101111100001011100000000010110 ;
09
15
03
01
00
0-
0,
0%
0$
1'
0&
1)
#74000000
b1100011101100110111100010100101000110011100101 ;
19
08
05
14
13
12
1/
1.
0+
1%
1(
1#
0'
0)
0"
#76000000
b1111101010011010001001000111110101100110110100 ;
09
15
03
11
0/
1-
1+
0#
1'
1&
1)
0*
#78000000
b10010110111001101010101111011000010011010000011 ;
19
18
07
05
04
01
10
1/
0.
0-
1,
0+
0%
0(
1$
1#
0)
1"
#80000000
b10110000100000000100010101110001111001101010010 ;
09
15
13
02
11
0/
1-
1+
1%
0#
0'
1*
#82000000
b100011001100110011001100110011001100 :
b101001010000110011101111100001011100000000000000 ;
08
17
16
05
13
12
01
00
1/
1.
0-
0,
0+
1(
0$
1#
0&
0)
0"
#84000000
b101100011101100110111100010100101000110011001111 ;
19
18
07
15
03
11
0/
1-
1+
0#
1'
1&
1)
0*
#86000000
b101111101010011010001001000111110101100110011110 ;
09
05
14
13
02
01
10
1/
0.
0-
1,
0+
0%
0(
1$
1#
0)
1"
#88000000
b110010110111001101010101111011000010011001101101 ;
19
08
15
03
11
0/
1-
1+
1%
0#
0'
1*
#90000000
b110110000100000000100010101110001111001100111100 ;
09
05
04
01
00
0-
0,
0%
0$
1'
0&
1)
#92000000
b111001010000110011101111100001011100000000001011 ;
19
18
17
06
15
13
12
1/
1.
0+
1%
1(
1#
0'
0)
0"
#94000000
b111100011101100110111100010100101000110011011010 ;
09
05
14
03
11
0/
1-
1+
0#
1'
1&
1)
0*
#96000000
b111111101010011010001001000111110101100110101001 ;
19
08
15
13
02
01
10
1/
0.
0-
1,
0+
0%
0(
1$
1#
0)
1"
#98000000
b10110111001101010101111011000010011001111000 ;
09
05
04
11
0/
1-
1+
1%
0#
0'
1*
#100000000
b110000100000000100010101110001111001101000111 ;
19
18
07
15
03
01
00
0-
0,
0%
0$
1'
0&
1)
#102000000
b1001010000110011101111100001011100000000010110 ;
09
05
14
13
12
1/
1.
0+
1%
1(
1#
0'
0)
0"
#104000000
b1100011101100110111100010100101000110011100101 ;
19
08
15
03
11
0/
1-
1+
0#
1'
1&
1)
0*
#106000000
b1111101010011010001001000111110101100110110100 ;
09
05
04
01
10
1/
0.
0-
1,
0+
0%
0(
1$
1#
0)
1"
#108000000
b10010110111001101010101111011000010011010000011 ;
19
18
17
16
13
02
11
0/
1-
1+
1%
0#
0'
1*
#110000000
b10110000100000000100010101110001111001101010010 ;
09
15
03
01
00
0-
0,
0%
0$
1'
0&
1)
#112000000
b100110011001100110011001100110011000 :
b101001010000110011101111100001011100000000000000 ;
08
07
15
03
12
11
0/
1.
1-
1+
1%
1(
1&
1)
0*
0"
#114000000
b101100011101100110111100010100101000110011001111 ;
19
18
17
06
05
14
13
02
01
10
1/
0.
0-
1,
0+
0%
0(
1$
1#
0)
1"
#116000000
b101111101010011010001001000111110101100110011110 ;
09
15
03
11
0/
1-
1+
1%
0#
0'
1*
#118000000
b110010110111001101010101111011000010011001101101 ;
19
08
05
04
01
00
0-
0,
0%
0$
1'
0&
1)
#120000000
b110110000100000000100010101110001111001100111100 ;
09
15
13
12
1/
1.
0+
1%
1(
1#
0'
0)
0"
#122000000
b111001010000110011101111100001011100000000001011 ;
19
18
07
05
14
03
11
0/
1-
1+
0#
1'
1&
1)
0*
#124000000
b111100011101100110111100010100101000110011011010 ;
09
15
13
02
01
10
1/
0.
0-
1,
0+
0%
0(
1$
1#
0)
1"
#126000000
b111111101010011010001001000111110101100110101001 ;
19
08
05
04
11
0/
1-
1+
1%
0#
0'
1*
#128000000
b10110111001101010101111011000010011001111000 ;
09
15
03
01
00
0-
0,
0%
0$
1'
0&
1)
#130000000
b110000100000000100010101110001111001101000111 ;
19
18
17
16
13
12
1/
1.
0+
1%
1(
1#
0'
0)
0"
#132000000
b1001010000110011101111100001011100000000010110 ;
09
05
14
03
11
0/
1-
1+
0#
1'
1&
1)
0*
#134000000
b1100011101100110111100010100101000110011100101 ;
19
08
15
13
02
01
10
1/
0.
0-
1,
0+
0%
0(
1$
1#
0)
1"
#136000000
b1111101010011010001001000111110101100110110100 ;
09
05
04
11
0/
1-
1+
1%
0#
0'
1*
#138000000
b10010110111001101010101111011000010011010000011 ;
19
18
07
15
03
01
00
0-
0,
0%
0$
1'
0&
1)
#140000000
b10110000100000000100010101110001111001101010010 ;
09
05
14
13
12
1/
1.
0+
1%
1(
1#
0'
0)
0"
#142000000
b101001100110011001100110011001100100 :
b101001010000110011101111100001011100000000000000 ;
08
17
06
05
14
13
02
01
10
1/
0.
0-
1,
0+
0%
0(
1$
1'
1&
0)
0*
1"
#144000000
b101100011101100110111100010100101000110011001111 ;
19
18
07
15
03
11
0/
1-
1+
1%
0#
0'
1*
#146000000
b101111101010011010001001000111110101100110011110 ;
09
05
04
01
00
0-
0,
0%
0$
1'
0&
1)
#148000000
b110010110111001101010101111011000010011001101101 ;
19
08
15
13
12
1/
1.
0+
1%
1(
1#
0'
0)
0"
#150000000
b110110000100000000100010101110001111001100111100 ;
09
05
14
03
11
0/
1-
1+
0#
1'
1&
1)
0*
#152000000
b111001010000110011101111100001011100000000001011 ;
19
18
17
16
13
02
01
10
1/
0.
0-
1,
0+
0%
0(
1$
1#
0)
1"
#154000000
b111100011101100110111100010100101000110011011010 ;
09
15
03
11
0/
1-
1+
1%
0#
0'
1*
#156000000
b111111101010011010001001000111110101100110101001 ;
19
08
05
04
01
00
0-
0,
0%
0$
1'
0&
1)
#158000000
b10110111001101010101111011000010011001111000 ;
09
15
13
12
1/
1.
0+
1%
1(
1#
0'
0)
0"
#160000000
b110000100000000100010101110001111001101000111 ;
19
18
07
05
14
03
11
0/
1-
1+
0#
1'
1&
1)
0*
#162000000
b1001010000110011101111100001011100000000010110 ;
09
15
13
02
01
10
1/
0.
0-
1,
0+
0%
0(
1$
1#
0)
1"
#164000000
b1100011101100110111100010100101000110011100101 ;
19
08
05
04
11
0/
1-
1+
1%
0#
0'
1*
#166000000
b1111101010011010001001000111110101100110110100 ;
09
15
03
01
00
0-
0,
0%
0$
1'
0&
1)
#168000000
b10010110111001101010101111011000010011010000011 ;
19
18
17
06
05
14
13
12
1/
1.
0+
1%
1(
1#
0'
0)
0"
#170000000
b10110000100000000100010101110001111001101010010 ;
09
15
03
11
0/
1-
1+
0#
1'
1&
1)
0*
#172000000
b101100110011001100110011001100110000 :
b101001010000110011101111100001011100000000000000 ;
08
07
15
03
02
11
10
0/
0.
1-
1,
1+
0(
1$
0'
0)
1*
1"
#174000000
b101100011101100110111100010100101000110011001111 ;
19
18
17
16
13
12
1/
1.
0+
0%
0$
1'
0&
1)
#176000000
b101111101010011010001001000111110101100110011110 ;
09
05
04
01
00
0-
0,
1%
1(
1#
0'
0)
0"
#178000000
b110010110111001101010101111011000010011001101101 ;
19
08
15
03
11
0/
1-
1+
0#
1'
1&
1)
0*
#180000000
b110110000100000000100010101110001111001100111100 ;
09
05
14
13
02
01
10
1/
0.
0-
1,
0+
0%
0(
1$
1#
0)
1"
#182000000
b111001010000110011101111100001011100000000001011 ;
19
18
07
15
03
11
0/
1-
1+
1%
0#
0'
1*
#184000000
b111100011101100110111100010100101000110011011010 ;
09
05
04
01
00
0-
0,
0%
0$
1'
0&
1)
#186000000
b111111101010011010001001000111110101100110101001 ;
19
08
15
13
12
1/
1.
0+
1%
1(
1#
0'
0)
0"
#188000000
b10110111001101010101111011000010011001111000 ;
09
05
14
03
11
0/
1-
1+
0#
1'
1&
1)
0*
#190000000
b110000100000000100010101110001111001101000111 ;
19
18
17
06
15
13
02
01
10
1/
0.
0-
1,
0+
0%
0(
1$
1#
0)
1"
#192000000
b1001010000110011101111100001011100000000010110 ;
09
05
04
11
0/
1-
1+
1%
0#
0'
1*
#194000000
b1100011101100110111100010100101000110011100101 ;
19
08
15
03
01
00
0-
0,
0%
0$
1'
0&
1)
#196000000
b1111101010011010001001000111110101100110110100 ;
09
05
14
13
12
1/
1.
0+
1%
1(
1#
0'
0)
0"
#198000000
b10010110111001101010101111011000010011010000011 ;
19
18
07
15
03
11
0/
1-
1+
0#
1'
1&
1)
0*
#200000000
b10110000100000000100010101110001111001101010010 ;
09
05
04
01
10
1/
0.
0-
1,
0+
0%
0(
1$
1#
0)
1"
#202000000
b101111111111111111111111111111111100 :
b101001010000110011101111100001011100000000000000 ;
08
17
16
15
14
13
12
11
1/
1.
1-
0+
0$
0#
0&
1)
1*
#204000000
b101100011101100110111100010100101000110011001111 ;
19
18
07
05
04
01
00
0-
0,
1%
1(
1#
0'
0)
0"
#206000000
b101111101010011010001001000111110101100110011110 ;
09
15
03
11
0/
1-
1+
0#
1'
1&
1)
0*
#208000000
b110010110111001101010101111011000010011001101101 ;
19
08
05
14
13
02
01
10
1/
0.
0-
1,
0+
0%
0(
1$
1#
0)
1"
#210000000
b110110000100000000100010101110001111001100111100 ;
09
15
03
11
0/
1-
1+
1%
0#
0'
1*
#212000000
b111001010000110011101111100001011100000000001011 ;
19
18
17
06
05
04
01
00
0-
0,
0%
0$
1'
0&
1)
#214000000
b111100011101100110111100010100101000110011011010 ;
09
15
13
12
1/
1.
0+
1%
1(
1#
0'
0)
0"
#216000000
b111111101010011010001001000111110101100110101001 ;
19
08
05
14
03
11
0/
1-
1+
0#
1'
1&
1)
0*
#218000000
b10110111001101010101111011000010011001111000 ;
09
15
13
02
01
10
1/
0.
0-
1,
0+
0%
0(
1$
1#
0)
1"
#220000000
b110000100000000100010101110001111001101000111 ;
19
18
07
05
04
11
0/
1-
1+
1%
0#
0'
1*
#222000000
b1001010000110011101111100001011100000000010110 ;
09
15
03
01
00
0-
0,
0%
0$
1'
0&
1)
#224000000
b1100011101100110111100010100101000110011100101 ;
19
08
05
14
13
12
1/
1.
0+
1%
1(
1#
0'
0)
0"
#226000000
b1111101010011010001001000111110101100110110100 ;
09
15
03
11
0/
1-
1+
0#
1'
1&
1)
0*
#228000000
b10010110111001101010101111011000010011010000011 ;
19
18
17
16
13
02
01
10
1/
0.
0-
1,
0+
0%
0(
1$
1#
0)
1"
#230000000
b10110000100000000100010101110001111001101010010 ;
09
05
04
11
0/
1-
1+
1%
0#
0'
1*
#232000000
b110011001100110011001100110011001000 :
b101001010000110011101111100001011100000000000000 ;
08
07
05
04
12
01
00
1/
1.
0-
0,
0+
1(
0$
1#
0'
0&
0)
0"
#234000000
b101100011101100110111100010100101000110011001111 ;
19
18
17
06
15
03
11
0/
1-
1+
0#
1'
1&
1)
0*
#236000000
b101111101010011010001001000111110101100110011110 ;
09
05
14
13
02
01
10
1/
0.
0-
1,
0+
0%
0(
1$
1#
0)
1"
#238000000
b110010110111001101010101111011000010011001101101 ;
19
08
15
03
11
0/
1-
1+
1%
0#
0'
1*
#240000000
b110110000100000000100010101110001111001100111100 ;
09
05
04
01
00
0-
0,
0%
0$
1'
0&
1)
#242000000
b111001010000110011101111100001011100000000001011 ;
19
18
07
15
13
12
1/
1.
0+
1%
1(
1#
0'
0)
0"
#244000000
b111100011101100110111100010100101000110011011010 ;
09
05
14
03
11
0/
1-
1+
0#
1'
1&
1)
0*
#246000000
b111111101010011010001001000111110101100110101001 ;
19
08
15
13
02
01
10
1/
0.
0-
1,
0+
0%
0(
1$
1#
0)
1"
#248000000
b10110111001101010101111011000010011001111000 ;
09
05
04
11
0/
1-
1+
1%
0#
0'
1*
#250000000
b110000100000000100010101110001111001101000111 ;
19
18
17
16
03
01
00
0-
0,
0%
0$
1'
0&
1)
#252000000
b1001010000110011101111100001011100000000010110 ;
09
15
13
12
1/
1.
0+
1%
1(
1#
0'
0)
0"
#254000000
b1100011101100110111100010100101000110011100101 ;
19
08
05
14
03
11
0/
1-
1+
0#
1'
1&
1)
0*
#256000000
b1111101010011010001001000111110101100110110100 ;
09
15
13
02
01
10
1/
0.
0-
1,
0+
0%
0(
1$
1#
0)
1"
#258000000
b10010110111001101010101111011000010011010000011 ;
19
18
07
05
04
11
0/
1-
1+
1%
0#
0'
1*
#260000000
b10110000100000000100010101110001111001101010010 ;
09
15
03
01
00
0-
0,
0%
0$
1'
0&
1)
#262000000
b110110011001100110011001100110010100 :
b101001010000110011101111100001011100000000000000 ;
08
17
06
15
03
12
11
0/
1.
1-
1+
1%
1(
1&
1)
0*
0"
#264000000
b101100011101100110111100010100101000110011001111 ;
19
18
07
05
14
13
02
01
10
1/
0.
0-
1,
0+
0%
0(
1$
1#
0)
1"
#266000000
b101111101010011010001001000111110101100110011110 ;
09
15
03
11
0/
1-
1+
1%
0#
0'
1*
#268000000
b110010110111001101010101111011000010011001101101 ;
19
08
05
04
01
00
0-
0,
0%
0$
1'
0&
1)
#270000000
b110110000100000000100010101110001111001100111100 ;
09
15
13
12
1/
1.
0+
1%
1(
1#
0'
0)
0"
#272000000
b111001010000110011101111100001011100000000001011 ;
19
18
17
16
03
11
0/
1-
1+
0#
1'
1&
1)
0*
#274000000
b111100011101100110111100010100101000110011011010 ;
09
05
14
13
02
01
10
1/
0.
0-
1,
0+
0%
0(
1$
1#
0)
1"
#276000000
b111111101010011010001001000111110101100110101001 ;
19
08
15
03
11
0/
1-
1+
1%
0#
0'
1*
#278000000
b10110111001101010101111011000010011001111000 ;
09
05
04
01
00
0-
0,
0%
0$
1'
0&
1)
#280000000
b110000100000000100010101110001111001101000111 ;
19
18
07
15
13
12
1/
1.
0+
1%
1(
1#
0'
0)
0"
#282000000
b1001010000110011101111100001011100000000010110 ;
09
05
14
03
11
0/
1-
1+
0#
1'
1&
1)
0*
#284000000
b1100011101100110111100010100101000110011100101 ;
19
08
15
13
02
01
10
1/
0.
0-
1,
0+
0%
0(
1$
1#
0)
1"
#286000000
b1111101010011010001001000111110101100110110100 ;
09
05
04
11
0/
1-
1+
1%
0#
0'
1*
#288000000
b10010110111001101010101111011000010011010000011 ;
19
18
17
06
15
03
01
00
0-
0,
0%
0$
1'
0&
1)
#290000000
b10110000100000000100010101110001111001101010010 ;
09
05
14
13
12
1/
1.
0+
1%
1(
1#
0'
0)
0"
#292000000
b111001100110011001100110011001100000 :
b101001010000110011101111100001011100000000000000 ;
08
07
05
14
13
02
01
10
1/
0.
0-
1,
0+
0%
0(
1$
1'
1&
0)
0*
1"
#294000000
b101100011101100110111100010100101000110011001111 ;
19
18
17
16
03
11
0/
1-
1+
1%
0#
0'
1*
#296000000
b101111101010011010001001000111110101100110011110 ;
09
15
13
12
1/
1.
0+
0%
0$
1'
0&
1)
#298000000
b110010110111001101010101111011000010011001101101 ;
19
08
05
04
01
00
0-
0,
1%
1(
1#
0'
0)
0"
#300000000
b110110000100000000100010101110001111001100111100 ;
09
15
03
11
0/
1-
1+
0#
1'
1&
1)
0*
#302000000
b111001010000110011101111100001011100000000001011 ;
19
18
07
05
14
13
02
01
10
1/
0.
0-
1,
0+
0%
0(
1$
1#
0)
1"
#304000000
b111100011101100110111100010100101000110011011010 ;
09
15
03
11
0/
1-
1+
1%
0#
0'
1*
#306000000
b111111101010011010001001000111110101100110101001 ;
19
08
05
04
01
00
0-
0,
0%
0$
1'
0&
1)
#308000000
b10110111001101010101111011000010011001111000 ;
09
15
13
12
1/
1.
0+
1%
1(
1#
0'
0)
0"
#310000000
b110000100000000100010101110001111001101000111 ;
19
18
17
06
05
14
03
11
0/
1-
1+
0#
1'
1&
1)
0*
#312000000
b1001010000110011101111100001011100000000010110 ;
09
15
13
02
01
10
1/
0.
0-
1,
0+
0%
0(
1$
1#
0)
1"
#314000000
b1100011101100110111100010100101000110011100101 ;
19
08
05
04
11
0/
1-
1+
1%
0#
0'
1*
#316000000
b1111101010011010001001000111110101100110110100 ;
09
15
03
01
00
0-
0,
0%
0$
1'
0&
1)
#318000000
b10010110111001101010101111011000010011010000011 ;
19
18
07
05
14
13
12
1/
1.
0+
1%
1(
1#
0'
0)
0"
#320000000
b10110000100000000100010101110001111001101010010 ;
09
15
03
11
0/
1-
1+
0#
1'
1&
1)
0*
#322000000
b111100110011001100110011001100101100 :
b101001010000110011101111100001011100000000000000 ;
08
17
16
05
03
02
11
10
0/
0.
1-
1,
1+
0(
1$
0'
0)
1*
1"
#324000000
b101100011101100110111100010100101000110011001111 ;
19
18
07
15
13
12
1/
1.
0+
0%
0$
1'
0&
1)
#326000000
b101111101010011010001001000111110101100110011110 ;
09
05
04
01
00
0-
0,
1%
1(
1#
0'
0)
0"
#328000000
b110010110111001101010101111011000010011001101101 ;
19
08
15
03
11
0/
1-
1+
0#
1'
1&
1)
0*
#330000000
b110110000100000000100010101110001111001100111100 ;
09
05
14
13
02
01
10
1/
0.
0-
1,
0+
0%
0(
1$
1#
0)
1"
#332000000
b111001010000110011101111100001011100000000001011 ;
19
18
17
06
15
03
11
0/
1-
1+
1%
0#
0'
1*
#334000000
b111100011101100110111100010100101000110011011010 ;
09
05
04
01
00
0-
0,
0%
0$
1'
0&
1)
#336000000
b111111101010011010001001000111110101100110101001 ;
19
08
15
13
12
1/
1.
0+
1%
1(
1#
0'
0)
0"
#338000000
b10110111001101010101111011000010011001111000 ;
09
05
14
03
11
0/
1-
1+
0#
1'
1&
1)
0*
#340000000
b110000100000000100010101110001111001101000111 ;
19
18
07
15
13
02
01
10
1/
0.
0-
1,
0+
0%
0(
1$
1#
0)
1"
#342000000
b1001010000110011101111100001011100000000010110 ;
09
05
04
11
0/
1-
1+
1%
0#
0'
1*
#344000000
b1100011101100110111100010100101000110011100101 ;
19
08
15
03
01
00
0-
0,
0%
0$
1'
0&
1)
#346000000
b1111101010011010001001000111110101100110110100 ;
09
05
14
13
12
1/
1.
0+
1%
1(
1#
0'
0)
0"
#348000000
b10010110111001101010101111011000010011010000011 ;
19
18
17
16
03
11
0/
1-
1+
0#
1'
1&
1)
0*
#350000000
b10110000100000000100010101110001111001101010010 ;
09
15
13
02
01
10
1/
0.
0-
1,
0+
0%
0(
1$
1#
0)
1"
#352000000
b111111111111111111111111111111111000 :
b101001010000110011101111100001011100000000000000 ;
08
07
15
13
12
11
1/
1.
1-
0+
0$
0#
0&
1)
1*
#354000000
b101100011101100110111100010100101000110011001111 ;
19
18
17
06
05
04
01
00
0-
0,
1%
1(
1#
0'
0)
0"
#356000000
b101111101010011010001001000111110101100110011110 ;
09
15
03
11
0/
1-
1+
0#
1'
1&
1)
0*
#358000000
b110010110111001101010101111011000010011001101101 ;
19
08
05
14
13
02
01
10
1/
0.
0-
1,
0+
0%
0(
1$
1#
0)
1"
#360000000
b110110000100000000100010101110001111001100111100 ;
09
15
03
11
0/
1-
1+
1%
0#
0'
1*
#362000000
b111001010000110011101111100001011100000000001011 ;
19
18
07
05
04
01
00
0-
0,
0%
0$
1'
0&
1)
#364000000
b111100011101100110111100010100101000110011011010 ;
09
15
13
12
1/
1.
0+
1%
1(
1#
0'
0)
0"
#366000000
b111111101010011010001001000111110101100110101001 ;
19
08
05
14
03
11
0/
1-
1+
0#
1'
1&
1)
0*
#368000000
b10110111001101010101111011000010011001111000 ;
09
15
13
02
01
10
1/
0.
0-
1,
0+
0%
0(
1$
1#
0)
1"
#370000000
b110000100000000100010101110001111001101000111 ;
19
18
17
16
03
11
0/
1-
1+
1%
0#
0'
1*
#372000000
b1001010000110011101111100001011100000000010110 ;
09
05
04
01
00
0-
0,
0%
0$
1'
0&
1)
#374000000
b1100011101100110111100010100101000110011100101 ;
19
08
15
13
12
1/
1.
0+
1%
1(
1#
0'
0)
0"
#376000000
b1111101010011010001001000111110101100110110100 ;
09
05
14
03
11
0/
1-
1+
0#
1'
1&
1)
0*
#378000000
b10010110111001101010101111011000010011010000011 ;
19
18
07
15
13
02
01
10
1/
0.
0-
1,
0+
0%
0(
1$
1#
0)
1"
#380000000
b10110000100000000100010101110001111001101010010 ;
09
05
04
11
0/
1-
1+
1%
0#
0'
1*
#382000000
b11001100110011001100110011000100 :
b101001010000110011101111100001011100000000000000 ;
08
17
06
05
04
12
01
00
1/
1.
0-
0,
0+
1(
0$
1#
0'
0&
0)
0"
#384000000
b101100011101100110111100010100101000110011001111 ;
19
18
07
15
03
11
0/
1-
1+
0#
1'
1&
1)
0*
#386000000
b101111101010011010001001000111110101100110011110 ;
09
05
14
13
02
01
10
1/
0.
0-
1,
0+
0%
0(
1$
1#
0)
1"
#388000000
b110010110111001101010101111011000010011001101101 ;
19
08
15
03
11
0/
1-
1+
1%
0#
0'
1*
#390000000
b110110000100000000100010101110001111001100111100 ;
09
05
04
01
00
0-
0,
0%
0$
1'
0&
1)
#392000000
b111001010000110011101111100001011100000000001011 ;
19
18
17
16
13
12
1/
1.
0+
1%
1(
1#
0'
0)
0"
#394000000
b111100011101100110111100010100101000110011011010 ;
09
15
03
11
0/
1-
1+
0#
1'
1&
1)
0*
#396000000
b111111101010011010001001000111110101100110101001 ;
19
08
05
14
13
02
01
10
1/
0.
0-
1,
0+
0%
0(
1$
1#
0)
1"
#398000000
b10110111001101010101111011000010011001111000 ;
09
15
03
11
0/
1-
1+
1%
0#
0'
1*
#400000000
b110000100000000100010101110001111001101000111 ;
19
18
07
05
04
01
00
0-
0,
0%
0$
1'
0&
1)
#402000000
b1001010000110011101111100001011100000000010110 ;
09
15
13
12
1/
1.
0+
1%
1(
1#
0'
0)
0"
#404000000
b1100011101100110111100010100101000110011100101 ;
19
08
05
14
03
11
0/
1-
1+
0#
1'
1&
1)
0*
#406000000
b1111101010011010001001000111110101100110110100 ;
09
15
13
02
01
10
1/
0.
0-
1,
0+
0%
0(
1$
1#
0)
1"
#408000000
b10010110111001101010101111011000010011010000011 ;
19
18
17
06
05
04
11
0/
1-
1+
1%
0#
0'
1*
#410000000
b10110000100000000100010101110001111001101010010 ;
09
15
03
01
00
0-
0,
0%
0$
1'
0&
1)
#412000000
b110011001100110011001100110010000 :
b101001010000110011101111100001011100000000000000 ;
08
07
15
03
12
11
0/
1.
1-
1+
1%
1(
1&
1)
0*
0"
#414000000
b101100011101100110111100010100101000110011001111 ;
19
18
17
16
13
02
01
10
1/
0.
0-
1,
0+
0%
0(
1$
1#
0)
1"
#416000000
b101111101010011010001001000111110101100110011110 ;
09
05
14
03
11
0/
1-
1+
1%
0#
0'
1*
#418000000
b110010110111001101010101111011000010011001101101 ;
19
08
15
13
12
1/
1.
0+
0%
0$
1'
0&
1)
#420000000
b110110000100000000100010101110001111001100111100 ;
09
05
04
01
00
0-
0,
1%
1(
1#
0'
0)
0"
#422000000
b111001010000110011101111100001011100000000001011 ;
19
18
07
15
03
11
0/
1-
1+
0#
1'
1&
1)
0*
#424000000
b111100011101100110111100010100101000110011011010 ;
09
05
14
13
02
01
10
1/
0.
0-
1,
0+
0%
0(
1$
1#
0)
1"
#426000000
b111111101010011010001001000111110101100110101001 ;
19
08
15
03
11
0/
1-
1+
1%
0#
0'
1*
#428000000
b10110111001101010101111011000010011001111000 ;
09
05
04
01
00
0-
0,
0%
0$
1'
0&
1)
#430000000
b110000100000000100010101110001111001101000111 ;
19
18
17
06
15
13
12
1/
1.
0+
1%
1(
1#
0'
0)
0"
#432000000
b1001010000110011101111100001011100000000010110 ;
09
05
14
03
11
0/
1-
1+
0#
1'
1&
1)
0*
#434000000
b1100011101100110111100010100101000110011100101 ;
19
08
15
13
02
01
10
1/
0.
0-
1,
0+
0%
0(
1$
1#
0)
1"
#436000000
b1111101010011010001001000111110101100110110100 ;
09
05
04
11
0/
1-
1+
1%
0#
0'
1*
#438000000
b10010110111001101010101111011000010011010000011 ;
19
18
07
15
03
01
00
0-
0,
0%
0$
1'
0&
1)
#440000000
b10110000100000000100010101110001111001101010010 ;
09
05
14
13
12
1/
1.
0+
1%
1(
1#
0'
0)
0"
#442000000
b1001100110011001100110011001011100 :
b101001010000110011101111100001011100000000000000 ;
08
17
16
15
04
13
02
01
10
1/
0.
0-
1,
0+
0%
0(
1$
1'
1&
0)
0*
1"
#444000000
b101100011101100110111100010100101000110011001111 ;
19
18
07
05
14
03
11
0/
1-
1+
1%
0#
0'
1*
#446000000
b101111101010011010001001000111110101100110011110 ;
09
15
13
12
1/
1.
0+
0%
0$
1'
0&
1)
#448000000
b110010110111001101010101111011000010011001101101 ;
19
08
05
04
01
00
0-
0,
1%
1(
1#
0'
0)
0"
#450000000
b110110000100000000100010101110001111001100111100 ;
09
15
03
11
0/
1-
1+
0#
1'
1&
1)
0*
#452000000
b111001010000110011101111100001011100000000001011 ;
19
18
17
06
05
14
13
02
01
10
1/
0.
0-
1,
0+
0%
0(
1$
1#
0)
1"
#454000000
b111100011101100110111100010100101000110011011010 ;
09
15
03
11
0/
1-
1+
1%
0#
0'
1*
#456000000
b111111101010011010001001000111110101100110101001 ;
19
08
05
04
01
00
0-
0,
0%
0$
1'
0&
1)
#458000000
b10110111001101010101111011000010011001111000 ;
09
15
13
12
1/
1.
0+
1%
1(
1#
0'
0)
0"
#460000000
b110000100000000100010101110001111001101000111 ;
19
18
07
05
14
03
11
0/
1-
1+
0#
1'
1&
1)
0*
#462000000
b1001010000110011101111100001011100000000010110 ;
09
15
13
02
01
10
1/
0.
0-
1,
0+
0%
0(
1$
1#
0)
1"
#464000000
b1100011101100110111100010100101000110011100101 ;
19
08
05
04
11
0/
1-
1+
1%
0#
0'
1*
#466000000
b1111101010011010001001000111110101100110110100 ;
09
15
03
01
00
0-
0,
0%
0$
1'
0&
1)
#468000000
b10010110111001101010101111011000010011010000011 ;
19
18
17
16
13
12
1/
1.
0+
1%
1(
1#
0'
0)
0"
#470000000
b10110000100000000100010101110001111001101010010 ;
09
05
14
03
11
0/
1-
1+
0#
1'
1&
1)
0*
#472000000
b1100110011001100110011001100101000 :
b101001010000110011101111100001011100000000000000 ;
08
07
05
14
03
02
11
10
0/
0.
1-
1,
1+
0(
1$
0'
0)
1*
1"
#474000000
b101100011101100110111100010100101000110011001111 ;
19
18
17
06
15
13
12
1/
1.
0+
0%
0$
1'
0&
1)
#476000000
b101111101010011010001001000111110101100110011110 ;
09
05
04
01
00
0-
0,
1%
1(
1#
0'
0)
0"
#478000000
b110010110111001101010101111011000010011001101101 ;
19
08
15
03
11
0/
1-
1+
0#
1'
1&
1)
0*
#480000000
b110110000100000000100010101110001111001100111100 ;
09
05
14
13
02
01
10
1/
0.
0-
1,
0+
0%
0(
1$
1#
0)
1"
#482000000
b111001010000110011101111100001011100000000001011 ;
19
18
07
15
03
11
0/
1-
1+
1%
0#
0'
1*
#484000000
b111100011101100110111100010100101000110011011010 ;
09
05
04
01
00
0-
0,
0%
0$
1'
0&
1)
#486000000
b111111101010011010001001000111110101100110101001 ;
19
08
15
13
12
1/
1.
0+
1%
1(
1#
0'
0)
0"
#488000000
b10110111001101010101111011000010011001111000 ;
09
05
14
03
11
0/
1-
1+
0#
1'
1&
1)
0*
#490000000
b110000100000000100010101110001111001101000111 ;
19
18
17
16
13
02
01
10
1/
0.
0-
1,
0+
0%
0(
1$
1#
0)
1"
#492000000
b1001010000110011101111100001011100000000010110 ;
09
15
03
11
0/
1-
1+
1%
0#
0'
1*
#494000000
b1100011101100110111100010100101000110011100101 ;
19
08
05
04
01
00
0-
0,
0%
0$
1'
0&
1)
