mysite/Users/all_users/user_1/Bugs/accu1/accu1.vcd
$date
   Sat Mar 16 18:48:06 2019
$end
$version
  P.20131013
$end
$timescale
  1ps
$end
$scope module accu1Test $end
$var wire 1 ! compareout512 $end
$var wire 1 " comcheck [35] $end
$var wire 1 # comcheck [34] $end
$var wire 1 $ comcheck [33] $end
$var wire 1 % comcheck [32] $end
$var wire 1 & comcheck [31] $end
$var wire 1 ' comcheck [30] $end
$var wire 1 ( comcheck [29] $end
$var wire 1 ) comcheck [28] $end
$var wire 1 * comcheck [27] $end
$var wire 1 + comcheck [26] $end
$var wire 1 , comcheck [25] $end
$var wire 1 - comcheck [24] $end
$var wire 1 . comcheck [23] $end
$var wire 1 / comcheck [22] $end
$var wire 1 0 comcheck [21] $end
$var wire 1 1 comcheck [20] $end
$var wire 1 2 comcheck [19] $end
$var wire 1 3 comcheck [18] $end
$var wire 1 4 comcheck [17] $end
$var wire 1 5 comcheck [16] $end
$var wire 1 6 comcheck [15] $end
$var wire 1 7 comcheck [14] $end
$var wire 1 8 comcheck [13] $end
$var wire 1 9 comcheck [12] $end
$var wire 1 : comcheck [11] $end
$var wire 1 ; comcheck [10] $end
$var wire 1 < comcheck [9] $end
$var wire 1 = comcheck [8] $end
$var wire 1 > comcheck [7] $end
$var wire 1 ? comcheck [6] $end
$var wire 1 @ comcheck [5] $end
$var wire 1 A comcheck [4] $end
$var wire 1 B comcheck [3] $end
$var wire 1 C comcheck [2] $end
$var wire 1 D comcheck [1] $end
$var wire 1 E comcheck [0] $end
$var reg 36 F abin [35:0] $end
$var reg 1 G clkin $end
$var reg 1 H ldin $end
$var reg 1 I enout $end
$var reg 1 J rstp $end
$upscope $end
$enddefinitions $end
#0
$dumpvars
b0 F
0G
0H
1I
1J
0!
0E
0D
0C
0B
0A
0@
0?
0>
0=
0<
0;
0:
09
08
07
01
0-
06
05
04
0.
03
0)
0*
00
0/
0+
0,
02
0(
0&
0#
0%
0"
0$
0'
$end
#54000000
1G
#56000000
0G
#58000000
1G
#60000000
0G
#62000000
1G
#64000000
0G
#66000000
1G
#68000000
0G
#70000000
1G
#72000000
0G
#74000000
1G
#76000000
0G
#78000000
1G
#80000000
0G
#82000000
1G
#84000000
0G
#86000000
1G
#88000000
b1001001011 F
0G
1H
0J
#90000000
1G
#90000100
1E
1D
1B
1?
1<
#92000000
0G
#94000000
1G
#94000100
0E
1C
0B
1A
0?
1>
0<
1;
#96000000
0G
#98000000
1G
#98000100
1E
0D
0C
0A
1@
1?
1<
#100000000
0G
#102000000
1G
#102000100
0E
1C
1B
0?
0>
1=
0<
0;
1:
#104000000
0G
#106000000
1G
#106000100
1E
1D
0B
1A
1?
1<
#108000000
0G
#110000000
1G
#110000100
0E
0C
0A
0@
1>
0<
1;
#112000000
0G
#114000000
1G
#114000100
1E
0D
1C
1B
0?
0>
0=
0;
0:
19
#116000000
0G
#118000000
1G
#118000100
0E
0C
1A
1?
1<
#120000000
0G
#122000000
1G
#122000100
1E
1D
0B
0A
1@
0?
1>
0<
1;
#124000000
0G
#126000000
1G
#126000100
0E
1C
1B
1?
1<
#128000000
0G
#130000000
1G
#130000100
1E
0D
0C
1A
0?
0>
1=
0<
0;
1:
#132000000
0G
#134000000
1G
#134000100
0E
1C
0B
0A
0@
1>
1<
#136000000
0G
#138000000
1G
#138000100
1E
1D
1B
1?
0<
1;
#140000000
0G
#142000000
1G
#142000100
0E
0C
1A
0?
0>
0=
0;
0:
09
18
#144000000
0G
#146000000
1G
#146000100
1E
0D
1C
0B
0A
1@
1?
1<
#148000000
0G
#150000000
1G
#150000100
0E
0C
1A
0?
1>
0<
1;
#152000000
0G
#154000000
1G
#154000100
1E
1D
1B
1?
1<
#156000000
0G
#158000000
1G
#158000100
0E
1C
0B
0A
0@
0>
1=
0<
0;
1:
#160000000
0G
#162000000
1G
#162000100
1E
0D
0C
1A
0?
1>
1<
#164000000
0G
#166000000
1G
#166000100
0E
1C
1B
1?
0<
1;
#168000000
0G
#170000000
1G
#170000100
1E
1D
0B
0A
1@
0?
0>
0=
0;
0:
19
#172000000
0G
#174000000
1G
#174000100
0E
0C
1A
1?
1<
#176000000
0G
#178000000
1G
#178000100
1E
0D
1C
1B
0?
1>
0<
1;
#180000000
0G
#182000000
1G
#182000100
0E
0C
0A
0@
0>
1=
1<
#184000000
0G
#186000000
1G
#186000100
1E
1D
0B
1A
1?
0<
0;
1:
#188000000
0G
#190000000
1G
#190000100
0E
1C
1B
0?
1>
1<
#192000000
0G
#194000000
1G
#194000100
1E
0D
0C
0A
1@
1?
0<
1;
#196000000
0G
#198000000
1G
#198000100
0E
1C
0B
1A
0?
0>
0=
0;
0:
09
08
17
#200000000
0G
#202000000
1G
#202000100
1E
1D
1B
1?
1<
#204000000
0G
#206000000
1G
#206000100
0E
0C
0A
0@
1>
0<
1;
#208000000
0G
#210000000
1G
#210000100
1E
0D
1C
0B
1A
0?
0>
1=
1<
#212000000
0G
#214000000
1G
#214000100
0E
0C
0A
1@
1?
0<
0;
1:
#216000000
0G
#218000000
1G
#218000100
1E
1D
1B
0?
1>
1<
#220000000
0G
#222000000
1G
#222000100
0E
1C
0B
1A
1?
0<
1;
#224000000
0G
#226000000
1G
#226000100
1E
0D
0C
0A
0@
0>
0=
0;
0:
19
#228000000
0G
#230000000
1G
#230000100
0E
1C
1B
0?
1>
1<
#232000000
0G
#234000000
1G
#234000100
1E
1D
0B
1A
1?
0<
1;
#236000000
0G
#238000000
1G
#238000100
0E
0C
0A
1@
0?
0>
1=
1<
#240000000
0G
#242000000
1G
#242000100
1E
0D
1C
1B
1?
0<
0;
1:
#244000000
0G
#246000000
1G
#246000100
0E
0C
1A
0?
1>
1<
#248000000
0G
#250000000
1G
#250000100
1E
1D
0B
0A
0@
0>
0=
1;
#252000000
0G
#254000000
1G
#254000100
0E
1C
1B
1?
0<
0;
0:
09
18
#256000000
0G
#258000000
1G
#258000100
1E
0D
0C
1A
0?
1>
1<
#260000000
0G
#262000000
1G
#262000100
0E
1C
0B
0A
1@
1?
0<
1;
#264000000
0G
#266000000
1G
#266000100
1E
1D
1B
0?
0>
1=
1<
#268000000
0G
#270000000
1G
#270000100
0E
0C
1A
1?
0<
0;
1:
#272000000
0G
#274000000
1G
#274000100
1E
0D
1C
0B
0A
0@
1>
1<
#276000000
0G
#278000000
1G
#278000100
0E
0C
1A
0?
0>
0=
1;
#280000000
0G
#282000000
1G
#282000100
1E
1D
1B
1?
0<
0;
0:
19
#284000000
0G
#286000000
1G
#286000100
0E
1C
0B
0A
1@
0?
1>
1<
#288000000
0G
#290000000
1G
#290000100
1E
0D
0C
1A
1?
0<
1;
#292000000
0G
#294000000
1G
#294000100
0E
1C
1B
0?
0>
1=
1<
#296000000
0G
#298000000
1G
#298000100
1E
1D
0B
0A
0@
1>
0<
0;
1:
#300000000
0G
#302000000
1G
#302000100
0E
0C
1A
1?
1<
#304000000
0G
#306000000
1G
#306000100
1E
0D
1C
1B
0?
0>
0=
1;
#308000000
0G
#310000000
1G
#310000100
0E
0C
0A
1@
1?
0<
0;
0:
09
08
07
16
#312000000
0G
#314000000
1G
#314000100
1E
1D
0B
1A
0?
1>
1<
#316000000
0G
#318000000
1G
#318000100
0E
1C
1B
1?
0<
1;
#320000000
0G
#322000000
1G
#322000100
1E
0D
0C
0A
0@
0>
1=
1<
#324000000
0G
#326000000
1G
#326000100
0E
1C
0B
1A
0?
1>
0<
0;
1:
#328000000
0G
#330000000
1G
#330000100
1E
1D
1B
1?
1<
#332000000
0G
#334000000
1G
#334000100
0E
0C
0A
1@
0?
0>
0=
1;
#336000000
0G
#338000000
1G
#338000100
1E
0D
1C
0B
1A
1?
0<
0;
0:
19
#340000000
0G
#342000000
1G
#342000100
0E
0C
0A
0@
1>
1<
#344000000
0G
#346000000
1G
#346000100
1E
1D
1B
0?
0>
1=
0<
1;
#348000000
0G
#350000000
1G
#350000100
0E
1C
0B
1A
1?
1<
#352000000
0G
#354000000
1G
#354000100
1E
0D
0C
0A
1@
0?
1>
0<
0;
1:
#356000000
0G
#358000000
1G
#358000100
0E
1C
1B
1?
1<
#360000000
0G
#362000000
1G
#362000100
1E
1D
0B
1A
0?
0>
0=
1;
#364000000
0G
#366000000
1G
#366000100
0E
0C
0A
0@
1>
0<
0;
0:
09
18
#368000000
0G
#370000000
1G
#370000100
1E
0D
1C
1B
1?
1<
#372000000
0G
#374000000
1G
#374000100
0E
0C
1A
0?
0>
1=
0<
1;
#376000000
0G
#378000000
1G
#378000100
1E
1D
0B
0A
1@
1?
1<
#380000000
0G
#382000000
1G
#382000100
0E
1C
1B
0?
1>
0<
0;
1:
#384000000
0G
#386000000
1G
#386000100
1E
0D
0C
1A
1?
1<
#388000000
0G
#390000000
1G
#390000100
0E
1C
0B
0A
0@
0>
0=
1;
#392000000
0G
#394000000
1G
#394000100
1E
1D
1B
0?
1>
0<
0;
0:
19
#396000000
0G
#398000000
1G
#398000100
0E
0C
1A
1?
1<
#400000000
0G
#402000000
1G
#402000100
1E
0D
1C
0B
0A
1@
0?
0>
1=
0<
1;
#404000000
0G
#406000000
1G
#406000100
0E
0C
1A
1?
1<
#408000000
0G
#410000000
1G
#410000100
1E
1D
1B
0?
1>
0<
0;
1:
#412000000
0G
#414000000
1G
#414000100
0E
1C
0B
0A
0@
0>
0=
1;
#416000000
0G
#418000000
1G
#418000100
1E
0D
0C
1A
1?
1<
#420000000
0G
#422000000
1G
#422000100
0E
1C
1B
0?
1>
0<
0;
0:
09
08
17
#424000000
0G
#426000000
1G
#426000100
1E
1D
0B
0A
1@
1?
1<
#428000000
0G
#430000000
1G
#430000100
0E
0C
1A
0?
0>
1=
0<
1;
#432000000
0G
#434000000
1G
#434000100
1E
0D
1C
1B
1?
1<
#436000000
0G
#438000000
1G
#438000100
0E
0C
0A
0@
1>
0<
0;
1:
#440000000
0G
#442000000
1G
#442000100
1E
1D
0B
1A
0?
0>
0=
1;
#444000000
0G
#446000000
1G
#446000100
0E
1C
1B
1?
1<
#448000000
0G
#450000000
1G
#450000100
1E
0D
0C
0A
1@
0?
1>
0<
0;
0:
19
#452000000
0G
#454000000
1G
#454000100
0E
1C
0B
1A
1?
1<
#456000000
0G
#458000000
1G
#458000100
1E
1D
1B
0?
0>
1=
0<
1;
#460000000
0G
#462000000
1G
#462000100
0E
0C
0A
0@
1>
1<
#464000000
0G
#466000000
1G
#466000100
1E
0D
1C
0B
1A
1?
0<
0;
1:
#468000000
0G
#470000000
1G
#470000100
0E
0C
0A
1@
0?
0>
0=
1;
#472000000
0G
#474000000
1G
#474000100
1E
1D
1B
1?
1<
#476000000
0G
#478000000
1G
#478000100
0E
1C
0B
1A
0?
1>
0<
0;
0:
09
18
#480000000
0G
#482000000
1G
#482000100
1E
0D
0C
0A
0@
0>
1=
1<
#484000000
0G
#486000000
1G
#486000100
0E
1C
1B
1?
0<
1;
#488000000
$dumpoff
x!
x "
x #
x $
x %
x &
x '
x (
x )
x *
x +
x ,
x -
x .
x /
x 0
x 1
x 2
x 3
x 4
x 5
x 6
x 7
x 8
x 9
x :
x ;
x <
x =
x >
x ?
x @
x A
x B
x C
x D
x E
bx F
xG
xH
xI
xJ
$end
