mysite/Users/all_users/user_1/Bugs/accu2/accu2_trf.vcd
$date
	Sat Mar 16 23:55:50 2019
$end
$timescale
	1us
$end
$version
	ModelSim Version 10.1c
$end
$scope module accu2_tb $end
$var wire 1 ! compareout512 $end
$var wire 1 " comcheck[35] $end
$var wire 1 # comcheck[34] $end
$var wire 1 $ comcheck[33] $end
$var wire 1 % comcheck[32] $end
$var wire 1 & comcheck[31] $end
$var wire 1 ' comcheck[30] $end
$var wire 1 ( comcheck[29] $end
$var wire 1 ) comcheck[28] $end
$var wire 1 * comcheck[27] $end
$var wire 1 + comcheck[26] $end
$var wire 1 , comcheck[25] $end
$var wire 1 - comcheck[24] $end
$var wire 1 . comcheck[23] $end
$var wire 1 / comcheck[22] $end
$var wire 1 0 comcheck[21] $end
$var wire 1 1 comcheck[20] $end
$var wire 1 2 comcheck[19] $end
$var wire 1 3 comcheck[18] $end
$var wire 1 4 comcheck[17] $end
$var wire 1 5 comcheck[16] $end
$var wire 1 6 comcheck[15] $end
$var wire 1 7 comcheck[14] $end
$var wire 1 8 comcheck[13] $end
$var wire 1 9 comcheck[12] $end
$var wire 1 : comcheck[11] $end
$var wire 1 ; comcheck[10] $end
$var wire 1 < comcheck[9] $end
$var wire 1 = comcheck[8] $end
$var wire 1 > comcheck[7] $end
$var wire 1 ? comcheck[6] $end
$var wire 1 @ comcheck[5] $end
$var wire 1 A comcheck[4] $end
$var wire 1 B comcheck[3] $end
$var wire 1 C comcheck[2] $end
$var wire 1 D comcheck[1] $end
$var wire 1 E comcheck[0] $end
$var wire 36 F abin[35:0] $end
$var reg 1 G clkin $end
$var reg 1 H ldin $end
$var reg 1 I enout $end
$var reg 1 J rstp $end
$upscope $end
$enddefinitions $end
#0
$dumpvars
0.
0B
0:
0"
0@
0+
0(
04
03
0-
0*
0/
0H
0'
0&
1I
09
0<
b000000000000000000000000000000000000 F
08
00
1J
07
01
0$
0!
0A
0;
0>
0=
0D
0%
0#
02
0)
0?
05
0,
0C
0G
0E
06
$end
#10
#11
#12
#13
#14
#27
#39
#54
1G
#56
0G
#58
1G
#60
0G
#62
1G
#64
0G
#66
1G
#68
0G
#70
1G
#72
0G
#74
1G
#76
0G
#78
1G
#80
0G
#82
1G
#84
0G
#86
1G
#88
0J
1H
b000000000000000000000000001001001011 F
0G
#90
1B
1D
1?
1E
1G
1<
#92
0G
#94
0B
1C
1A
0?
0E
1>
1G
1;
0<
#96
0G
#98
0D
0C
0A
1?
1E
1@
1G
1<
#100
0G
#102
1B
1C
0?
1G
0E
0>
1=
0;
0<
1:
#104
0G
#106
0B
1D
1A
1?
1E
1G
1<
#108
0G
#110
0C
0@
0A
0E
1>
1G
1;
0<
#112
0G
#114
1B
0D
1C
0?
19
1G
1E
0>
0=
0;
0:
#116
0G
#118
1A
1?
0E
0C
1G
1<
#120
0G
#122
0B
1D
0<
1@
0?
1E
1>
1G
0A
1;
#124
0G
#126
1B
1?
0E
1C
1G
1<
#128
0G
#130
0D
0C
0<
0?
1G
1E
0>
1=
1A
0;
1:
#132
0G
#134
0B
1C
0@
0A
0E
1>
1G
1<
#136
0G
#138
1B
1D
1?
1E
1G
1;
0<
#140
0G
#142
0C
0;
0?
09
1G
0E
0>
0=
1A
18
0:
#144
0G
#146
0B
0D
1C
0A
1?
1E
1@
1G
1<
#148
0G
#150
0C
1A
0?
0E
1>
1G
1;
0<
#152
0G
#154
1B
1D
1?
1E
1G
1<
#156
0G
#158
0B
1C
0<
0@
1G
0E
0>
1=
0A
0;
1:
#160
0G
#162
0D
0C
1A
0?
1E
1>
1G
1<
#164
0G
#166
1B
1?
0E
1C
1G
1;
0<
#168
0G
#170
0B
0>
0=
1@
0?
1E
0:
1G
1D
0A
19
0;
#172
0G
#174
1A
1?
0E
0C
1G
1<
#176
0G
#178
1B
0D
1C
0?
1E
1>
1G
1;
0<
#180
0G
#182
0C
0@
1G
0E
0>
1=
0A
1<
#184
0G
#186
0B
1D
1A
1?
1E
1:
1G
0;
0<
#188
0G
#190
1B
1C
0?
0E
1>
1G
1<
#192
0G
#194
0D
0C
0A
1?
1E
1@
1G
1;
0<
#196
0G
#198
0B
0:
0=
17
0?
0E
0>
1G
1A
09
1C
0;
08
#200
0G
#202
1B
1D
1?
1E
1G
1<
#204
0G
#206
0C
0@
0A
0E
1>
1G
1;
0<
#208
0G
#210
0B
0D
1C
0?
1G
1E
0>
1=
1A
1<
#212
0G
#214
0C
0A
1?
0E
1@
1G
0;
0<
1:
#216
0G
#218
1B
1D
0?
1E
1>
1G
1<
#220
0G
#222
0B
1A
1?
0E
1C
1G
1;
0<
#224
0G
#226
0D
0C
0@
19
1G
1E
0>
0=
0A
0;
0:
#228
0G
#230
1B
1C
0?
0E
1>
1G
1<
#232
0G
#234
0B
1D
1A
1?
1E
1G
1;
0<
#236
0G
#238
0C
1@
0?
1G
0E
0>
1=
0A
1<
#240
0G
#242
1B
0D
1:
1?
1E
1C
1G
0;
0<
#244
0G
#246
0C
1A
0?
0E
1>
1G
1<
#248
0G
#250
0B
1D
0@
1G
1E
0>
0=
0A
1;
#252
0G
#254
1B
0:
18
09
1?
0E
1C
1G
0;
0<
#256
0G
#258
0D
0C
1A
0?
1E
1>
1G
1<
#260
0G
#262
0B
1C
0A
1?
0E
1@
1G
1;
0<
#264
0G
#266
1B
1D
0?
1G
1E
0>
1=
1<
#268
0G
#270
1:
1A
1?
0E
0C
1G
0;
0<
#272
0G
#274
0B
0D
1C
0@
0A
1E
1>
1G
1<
#276
0G
#278
0C
0?
1G
0E
0>
0=
1A
1;
#280
0G
#282
1B
1D
19
1?
1E
0:
1G
0;
0<
#284
0G
#286
0B
1C
1@
0?
0E
1>
1G
0A
1<
#288
0G
#290
0D
1A
1?
1E
0C
1G
1;
0<
#292
0G
#294
1B
1C
0?
1G
0E
0>
1=
1<
#296
0G
#298
0B
1D
1:
0@
0A
1E
1>
1G
0;
0<
#300
0G
#302
1A
1?
0E
0C
1G
1<
#304
0G
#306
1B
0D
1C
0?
1G
1E
0>
0=
1;
#308
0G
#310
07
1@
08
0E
0:
1G
1?
0A
09
0<
0C
0;
16
#312
0G
#314
0B
1D
1A
0?
1E
1>
1G
1<
#316
0G
#318
1B
1?
0E
1C
1G
1;
0<
#320
0G
#322
0D
0C
0@
1G
1E
0>
1=
0A
1<
#324
0G
#326
0B
1C
1A
0?
0E
1>
1G
0;
0<
1:
#328
0G
#330
1B
1D
1?
1E
1G
1<
#332
0G
#334
0C
1@
0?
1G
0E
0>
0=
0A
1;
#336
0G
#338
0B
0D
0:
1A
19
1?
1E
1C
1G
0;
0<
#340
0G
#342
0C
0@
0A
0E
1>
1G
1<
#344
0G
#346
1B
1D
0?
1G
1E
0>
1=
1;
0<
#348
0G
#350
0B
1A
1?
0E
1C
1G
1<
#352
0G
#354
0D
0C
0<
1@
0?
1E
1>
1G
0A
0;
1:
#356
0G
#358
1B
1?
0E
1C
1G
1<
#360
0G
#362
0B
1D
0?
1G
1E
0>
0=
1A
1;
#364
0G
#366
0C
0<
0@
09
0A
0E
1>
1G
0;
18
0:
#368
0G
#370
1B
0D
1?
1E
1C
1G
1<
#372
0G
#374
0C
0<
0?
1G
0E
0>
1=
1A
1;
#376
0G
#378
0B
1D
0A
1?
1E
1@
1G
1<
#380
0G
#382
1B
1C
0?
0E
1>
1G
0;
0<
1:
#384
0G
#386
0D
1A
1?
1E
0C
1G
1<
#388
0G
#390
0B
1C
0@
1G
0E
0>
0=
0A
1;
#392
0G
#394
1B
1D
0:
19
0?
1E
1>
1G
0;
0<
#396
0G
#398
1A
1?
0E
0C
1G
1<
#400
0G
#402
0B
1=
1@
0?
1E
0>
1G
0D
0A
0<
1C
1;
#404
0G
#406
1A
1?
0E
0C
1G
1<
#408
0G
#410
1B
1D
1:
0?
1E
1>
1G
0;
0<
#412
0G
#414
0B
1C
0@
1G
0E
0>
0=
0A
1;
#416
0G
#418
0D
1A
1?
1E
0C
1G
1<
#420
0G
#422
1B
0:
17
0?
0E
1>
1G
08
09
0<
1C
0;
#424
0G
#426
0B
1D
0A
1?
1E
1@
1G
1<
#428
0G
#430
0C
0<
0?
1G
0E
0>
1=
1A
1;
#432
0G
#434
1B
0D
1?
1E
1C
1G
1<
#436
0G
#438
0C
0@
0A
0E
1>
1G
0;
0<
1:
#440
0G
#442
0B
1D
0?
1G
1E
0>
0=
1A
1;
#444
0G
#446
1B
1?
0E
1C
1G
1<
#448
0G
#450
0:
1@
0?
1E
1>
1G
0D
0A
19
0<
0C
0;
#452
0G
#454
0B
1A
1?
0E
1C
1G
1<
#456
0G
#458
1B
1D
0?
1G
1E
0>
1=
1;
0<
#460
0G
#462
0C
0@
0A
0E
1>
1G
1<
#464
0G
#466
0B
0D
1:
1A
1?
1E
1C
1G
0;
0<
#468
0G
#470
0C
1@
0?
1G
0E
0>
0=
0A
1;
#472
0G
#474
1B
1D
1?
1E
1G
1<
#476
0G
#478
0B
0:
1A
0E
1>
1G
0?
09
0<
1C
0;
18
#480
0G
#482
0D
0C
0@
1G
1E
0>
1=
0A
1<
#484
0G
#486
1B
1?
0E
1C
1G
1;
0<
