mysite/Users/all_users/user_1/Bugs/BCIN/BCIN.vcd
$date
   Sat Mar 16 19:14:36 2019
$end
$version
  P.20131013
$end
$timescale
  1ps
$end
$scope module BCINTest $end
$var wire 1 ! compareout512 $end
$var wire 1 " comcheck [35] $end
$var wire 1 # comcheck [34] $end
$var wire 1 $ comcheck [33] $end
$var wire 1 % comcheck [32] $end
$var wire 1 & comcheck [31] $end
$var wire 1 ' comcheck [30] $end
$var wire 1 ( comcheck [29] $end
$var wire 1 ) comcheck [28] $end
$var wire 1 * comcheck [27] $end
$var wire 1 + comcheck [26] $end
$var wire 1 , comcheck [25] $end
$var wire 1 - comcheck [24] $end
$var wire 1 . comcheck [23] $end
$var wire 1 / comcheck [22] $end
$var wire 1 0 comcheck [21] $end
$var wire 1 1 comcheck [20] $end
$var wire 1 2 comcheck [19] $end
$var wire 1 3 comcheck [18] $end
$var wire 1 4 comcheck [17] $end
$var wire 1 5 comcheck [16] $end
$var wire 1 6 comcheck [15] $end
$var wire 1 7 comcheck [14] $end
$var wire 1 8 comcheck [13] $end
$var wire 1 9 comcheck [12] $end
$var wire 1 : comcheck [11] $end
$var wire 1 ; comcheck [10] $end
$var wire 1 < comcheck [9] $end
$var wire 1 = comcheck [8] $end
$var wire 1 > comcheck [7] $end
$var wire 1 ? comcheck [6] $end
$var wire 1 @ comcheck [5] $end
$var wire 1 A comcheck [4] $end
$var wire 1 B comcheck [3] $end
$var wire 1 C comcheck [2] $end
$var wire 1 D comcheck [1] $end
$var wire 1 E comcheck [0] $end
$var reg 18 F ina [17:0] $end
$var reg 18 G inb [17:0] $end
$upscope $end
$enddefinitions $end
#0
$dumpvars
b100000000000000000 F
b100000000000000000 G
0!
0E
0D
0C
0B
0A
0@
0?
0>
0=
0<
0;
0:
09
08
07
01
06
0/
0.
0-
05
0,
0+
00
04
03
0*
0)
02
0%
0'
0&
1#
0$
0"
0(
$end
#54000000
b100011001100110010 G
11
1.
1-
13
1*
1)
12
1%
1&
0#
1$
#56000000
b100110011001100100 G
0.
1,
10
03
0*
0&
1(
#58000000
b101001100110010110 G
1/
1.
0-
0,
1+
00
13
1*
0)
02
0%
1'
1&
0(
#60000000
b101100110011001000 G
0.
1,
10
03
0*
0&
1(
#62000000
b101111111111111010 G
01
0/
0,
0+
00
13
12
0'
0(
#64000000
b110011001100101100 G
1.
1-
10
03
1*
1)
1%
1&
0$
#66000000
b110110011001011110 G
1/
0.
1,
00
13
0*
02
0&
1(
#68000000
b111001100110010000 G
1.
0-
0,
1+
10
03
1*
0)
0%
1'
1&
0(
#70000000
b111100110011000010 G
11
0.
1,
13
0*
12
0&
1(
#72000000
b111111111111110100 G
0/
0,
0+
00
03
0'
0(
#74000000
b11001100100110 G
1.
1-
10
13
1*
1)
02
1%
1&
1#
1$
1"
#76000000
b110011001011000 G
1/
0.
1,
00
03
0*
0&
1(
#78000000
b1001100110001010 G
01
1.
0-
0,
1+
10
13
1*
0)
12
0%
1'
1&
0(
#80000000
b1100110010111100 G
0/
1,
00
03
0*
0&
1(
#82000000
b1111111111101110 G
0.
0,
0+
10
13
02
0'
0(
#84000000
b10011001100100000 G
1/
1.
1-
00
03
1*
1)
1%
1&
0$
#86000000
b10110011001010010 G
11
0.
1,
13
0*
12
0&
1(
#88000000
b11001100110000100 G
1.
0-
0,
1+
10
03
1*
0)
0%
1'
1&
0(
#90000000
b11100110010110110 G
0/
1,
00
13
0*
02
0&
1(
#92000000
b11111111111101000 G
0.
0,
0+
10
03
0'
0(
#94000000
b100011001100110011 F
b100000000000000000 G
0B
0A
0@
0=
0<
09
08
1.
1-
05
0,
0+
00
14
1*
1)
12
1%
0'
1&
0#
1$
0"
0(
#96000000
b100011001100110010 G
1D
1C
1A
1@
1?
1>
1:
18
1/
0.
15
1+
10
02
0&
1(
#98000000
b100110011001100100 G
0D
1B
0A
1=
0:
19
08
17
01
05
0+
00
04
13
0*
0)
12
0%
1'
1&
#100000000
b101001100110010110 G
1D
0C
0B
0=
1<
1:
18
0/
15
1+
10
02
0'
0(
#102000000
b101100110011001000 G
0D
1B
1A
0@
1=
0:
09
07
11
16
1/
1.
0-
05
0+
14
1*
12
0&
1(
#104000000
b101111111111111010 G
1D
1C
0A
0=
0<
1;
1:
08
17
15
1+
00
02
1%
1'
1&
0$
0(
#106000000
b110011001100101100 G
0D
0B
1=
0:
19
18
0/
05
0+
10
04
03
0*
1)
0&
1(
#108000000
b110110011001011110 G
1D
0C
1B
1A
1@
0?
0=
1<
1:
08
07
01
06
1+
00
14
12
0'
0(
#110000000
b111001100110010000 G
0D
0B
1=
0:
09
17
1/
0.
15
0+
10
1*
02
0%
1&
1(
#112000000
b111100110011000010 G
1D
1C
0A
0=
0<
0;
19
18
11
0/
05
1+
04
13
12
1'
0&
0(
#114000000
b111111111111110100 G
0D
1B
1A
0@
1=
1:
08
07
16
15
0+
00
0*
0)
02
0'
#116000000
b11001100100110 G
1D
0C
0B
0=
1<
0:
09
17
01
1/
1.
1-
05
1,
10
14
12
1%
1&
1#
1$
1"
1(
#118000000
b110011001011000 G
0D
1B
0A
1=
1:
18
15
1+
00
02
1'
0&
0(
#120000000
b1001100110001010 G
1D
1C
1A
1@
1?
0>
0=
0<
1;
0:
19
08
07
06
0/
0+
10
04
03
1*
0%
1&
1(
#122000000
b1100110010111100 G
0D
0B
1=
1:
18
11
1/
0.
05
1+
14
12
0'
0(
#124000000
b1111111111101110 G
1D
0C
1B
0A
0=
1<
0:
09
17
15
0+
00
0*
1)
02
0&
1(
#126000000
b10011001100100000 G
0D
0B
1=
1:
08
07
01
16
0/
05
1+
10
04
13
12
1%
1'
1&
0$
0(
#128000000
b10110011001010010 G
1D
1C
1A
0@
0=
0<
0;
19
18
15
0+
00
1*
02
0&
1(
#130000000
b11001100110000100 G
0D
1B
0A
1=
0:
09
17
11
1/
1.
0-
05
1+
14
12
0'
0(
#132000000
b11100110010110110 G
1D
0C
0B
0=
1<
1:
08
07
06
0/
0+
10
04
03
0*
0)
0%
1'
1&
#134000000
b11111111111101000 G
0D
1B
1A
1@
0?
1=
0:
19
18
15
1+
00
02
0&
1(
#136000000
b100110011001100110 F
b100000000000000000 G
0B
0A
0@
0?
0=
0<
0;
09
08
07
0/
0.
1-
05
1,
0+
10
04
13
0*
1)
1%
0'
0&
0#
1$
0"
1(
#138000000
b100011001100110010 G
1C
1B
1@
1?
1>
1=
19
17
01
1/
0,
00
14
03
0)
12
0%
1'
1&
#140000000
b100110011001100100 G
0C
1A
0@
1<
09
18
07
16
1,
1+
10
04
1*
02
0'
0(
#142000000
b101001100110010110 G
1C
0B
0A
0<
1;
19
17
11
0,
14
13
1)
0&
1(
#144000000
b101100110011001000 G
0C
1A
1@
0?
1<
09
08
01
06
0/
1.
15
1,
0+
00
04
0)
12
1%
1'
1&
0$
#146000000
b101111111111111010 G
1C
1B
0@
0<
0;
1:
19
07
16
0,
10
14
03
1)
02
0'
0(
#148000000
b110011001100101100 G
0C
0A
1<
09
18
17
11
1,
1+
04
0*
0)
12
1'
0&
#150000000
b110110011001011110 G
1C
0B
1A
1@
1?
0>
0<
1;
19
07
06
1/
05
0,
00
1)
02
0%
1&
1(
#152000000
b111001100110010000 G
0C
0A
1<
09
08
01
16
1,
0+
10
14
13
0)
0'
#154000000
b111100110011000010 G
1C
1B
0@
0<
0;
0:
18
17
11
0,
04
1)
12
1'
0&
0(
#156000000
b111111111111110100 G
0C
1A
1@
0?
1<
19
07
06
0/
0.
0-
15
00
14
03
0)
02
0'
#158000000
b11001100100110 G
1C
0B
0A
0<
1;
09
08
01
16
1,
1+
10
04
1*
12
1%
1&
1#
1$
1"
1(
#160000000
b110011001011000 G
0C
1A
0@
1<
19
17
11
0,
14
13
1)
1'
0&
0(
#162000000
b1001100110001010 G
1C
1B
1@
1?
1>
0=
0<
0;
1:
09
18
07
06
1/
05
1,
0+
00
0)
02
0'
#164000000
b1100110010111100 G
0C
0A
1<
19
17
01
0,
10
04
1)
12
0%
1&
1(
#166000000
b1111111111101110 G
1C
0B
1A
0@
0<
1;
09
08
16
0/
1.
1,
1+
00
14
03
0*
0)
02
1'
0&
#168000000
b10011001100100000 G
0C
0A
1<
19
07
11
06
15
0,
04
1)
12
0'
0(
#170000000
b10110011001010010 G
1C
1B
1@
0?
0<
0;
0:
18
17
01
1,
0+
10
14
13
0)
1%
1'
1&
0$
#172000000
b11001100110000100 G
0C
1A
0@
1<
09
08
16
1/
0,
00
04
1)
02
0&
1(
#174000000
b11100110010110110 G
1C
0B
0A
0<
1;
19
07
11
06
05
1,
1+
1*
12
0'
0(
#176000000
b11111111111101000 G
0C
1A
1@
1?
0>
1<
09
18
17
0,
10
14
03
0)
02
0%
1'
1&
#178000000
b101001100110011001 F
b100000000000000000 G
0B
0A
0@
0?
0>
0=
0<
0;
0:
09
08
07
01
06
1.
0-
05
0,
1+
00
13
1*
0)
12
0%
1'
1&
0#
1$
0"
0(
#180000000
b100011001100110010 G
1D
1@
1?
1>
1<
1:
19
18
17
0/
0.
1-
15
10
04
03
0*
02
0'
#182000000
b100110011001100100 G
0D
1C
0@
1=
0<
1;
0:
11
16
1/
05
13
1*
1)
0&
1(
#184000000
b101001100110010110 G
1D
1@
0?
0=
0;
01
06
1.
00
03
0*
12
1%
1'
1&
0$
#186000000
b101100110011001000 G
0D
0C
1B
0@
1=
1<
1:
09
11
16
0/
0.
0-
15
1,
14
1*
0)
0'
#188000000
b101111111111111010 G
1D
1@
1?
0>
0=
1;
0:
01
06
1/
10
13
0*
1'
0&
#190000000
b110011001100101100 G
0D
1C
0@
1=
0<
0;
16
1.
05
00
03
1*
1)
02
0'
0(
#192000000
b110110011001011110 G
1D
1@
0?
0=
1;
1:
19
08
11
06
0/
0.
1-
13
0*
0%
1'
1&
#194000000
b111001100110010000 G
0D
0C
0B
1A
0@
1=
1<
0:
01
16
1/
15
10
04
03
1*
0)
12
0'
#196000000
b111100110011000010 G
1D
1@
1?
1>
0<
0;
11
06
0/
1.
13
0*
1'
0&
#198000000
b111111111111110100 G
0D
1C
0@
0=
1;
1:
09
16
0.
0-
05
0,
0+
00
03
02
0'
#200000000
b11001100100110 G
1D
1@
0?
1=
1<
0:
01
06
1/
10
13
1*
1)
1%
1&
1#
1$
1"
1(
#202000000
b110011001011000 G
0D
0C
1B
0@
0=
0;
11
16
0/
1.
15
14
0*
1'
0&
#204000000
b1001100110001010 G
1D
1@
1?
0>
1=
0<
1;
1:
19
18
07
01
06
0.
1-
00
03
1*
0)
12
0'
#206000000
b1100110010111100 G
0D
1C
0@
0=
0;
11
16
1/
05
13
0*
0%
1'
1&
#208000000
b1111111111101110 G
1D
1@
0?
1=
1<
0:
06
0/
1.
10
03
1*
1)
02
0'
0(
#210000000
b10011001100100000 G
0D
0C
0B
0A
0=
1;
1:
09
01
16
0.
0-
15
1,
00
04
13
0*
1'
0&
#212000000
b10110011001010010 G
1D
0@
1=
0<
0;
11
06
1/
03
1*
0)
12
0'
#214000000
b11001100110000100 G
0D
1C
1@
1?
1>
1<
0:
01
16
0/
1.
05
10
13
0*
1%
1'
1&
0$
#216000000
b11100110010110110 G
1D
0@
0=
1;
1:
19
08
06
0.
1-
00
03
1*
1)
02
0&
1(
#218000000
b11111111111101000 G
0D
0C
1B
1@
0?
1=
0<
0;
11
16
1/
15
14
0*
0'
#220000000
b101100110011001100 F
b100000000000000000 G
0B
0@
0?
0>
0=
0;
0:
09
07
01
06
1/
0.
0-
05
1,
1+
10
04
03
0*
0)
12
0%
1'
0&
0#
1$
0"
1(
#222000000
b100011001100110010 G
1B
1A
1?
1>
1=
1<
18
11
16
1.
0,
0+
1*
0'
#224000000
b100110011001100100 G
0B
1@
0?
1;
08
17
01
06
0/
1-
15
1,
00
1%
1'
1&
0$
#226000000
b101001100110010110 G
1B
0A
0@
0;
1:
18
11
16
0.
0-
1+
0'
#228000000
b101100110011001000 G
0B
1@
1?
0>
1;
08
07
01
1.
05
0,
0+
10
14
0*
1)
1'
0&
#230000000
b101111111111111010 G
1B
1A
0?
0;
0:
19
18
11
06
0.
1-
15
1,
0'
#232000000
b110011001100101100 G
0B
0@
1;
08
17
01
16
1/
1.
0,
1+
00
0%
1'
1&
#234000000
b110110011001011110 G
1B
0A
1@
1?
1>
0=
0;
1:
18
11
06
0.
0-
05
0+
04
13
1*
0'
#236000000
b111001100110010000 G
0B
0@
1;
08
07
01
1.
15
1,
10
1'
0&
#238000000
b111100110011000010 G
1B
1A
0?
0;
0:
09
17
11
16
0.
1-
0,
1+
0'
#240000000
b111111111111110100 G
0B
1@
1?
0>
1;
18
01
06
0/
0-
05
0+
00
14
0*
0)
0(
#242000000
b11001100100110 G
1B
0A
0@
0;
1:
08
07
11
1.
15
1,
1%
1'
1&
1#
1$
1"
#244000000
b110011001011000 G
0B
1@
0?
1;
18
01
16
0.
1-
0,
1+
10
0'
#246000000
b1001100110001010 G
1B
1A
1?
1>
1=
0<
0;
0:
19
08
17
06
1/
1.
05
1,
00
04
03
02
1'
0&
#248000000
b1100110010111100 G
0B
0@
1;
18
11
16
0.
0-
0+
1*
0'
#250000000
b1111111111101110 G
1B
0A
1@
0?
0;
1:
08
07
01
1.
15
0,
1+
10
0%
1'
1&
#252000000
b10011001100100000 G
0B
0@
1;
18
11
06
0.
1-
05
1,
14
0'
#254000000
b10110011001010010 G
1B
1A
1?
0>
0;
0:
09
17
01
16
0/
0-
0+
00
0*
1)
1'
0&
#256000000
b11001100110000100 G
0B
1@
0?
1;
08
07
11
1.
15
0,
1+
0'
#258000000
b11100110010110110 G
1B
0A
0@
0;
1:
18
01
06
0.
1-
05
1,
10
04
13
1%
1'
1&
0$
#260000000
b11111111111101000 G
0B
1@
1?
1>
0=
1;
08
17
11
16
1.
0,
0+
1*
0'
#262000000
b101111111111111111 F
b100000000000000000 G
0B
0A
0@
0?
0>
0;
0:
07
01
06
0.
0-
00
14
03
0*
0)
0%
0&
0#
1$
0"
#264000000
b100011001100110010 G
1D
1C
1B
1?
1>
1;
1:
17
16
1/
1.
15
1+
13
1*
12
1%
1'
1&
0$
#266000000
b100110011001100100 G
0D
1A
0?
1=
0;
19
07
11
0/
1-
0+
04
1)
0'
#268000000
b101001100110010110 G
1D
0C
0A
1@
1?
0>
0=
1<
1;
0:
09
18
17
01
06
1/
0.
0-
1,
1+
10
14
03
0*
0)
1'
0&
1(
#270000000
b101100110011001000 G
0D
1A
0?
1=
0;
19
07
11
0/
1-
0+
04
1)
0'
#272000000
b101111111111111010 G
1D
1C
0B
0A
0@
0=
0<
09
08
01
0-
0,
00
14
13
0)
02
0(
#274000000
b110011001100101100 G
0D
1A
1?
1>
1;
1:
17
11
16
1/
1.
05
1+
04
1*
0%
1'
1&
#276000000
b110110011001011110 G
1D
0C
0A
1@
0?
1=
0;
19
07
01
0/
1-
0+
10
14
03
1)
0'
#278000000
b111001100110010000 G
0D
1A
1?
0>
0=
1<
1;
0:
09
18
17
11
06
1/
0.
0-
1,
1+
04
0*
0)
1'
0&
1(
#280000000
b111100110011000010 G
1D
1C
1B
0?
1=
0;
19
07
0/
1-
0+
14
13
1)
12
0'
#282000000
b111111111111110100 G
0D
0A
0@
0=
0<
09
08
01
0-
0,
00
04
0)
0(
#284000000
b11001100100110 G
1D
0C
1A
1?
1>
1;
1:
17
11
16
1/
1.
15
1+
03
1*
1%
1'
1&
1#
1$
1"
#286000000
b110011001011000 G
0D
0A
1@
0?
1=
0;
19
07
01
0/
1-
0+
10
14
13
1)
02
0'
#288000000
b1001100110001010 G
1D
1C
0B
1A
1?
0>
0=
1<
1;
0:
09
18
17
11
06
1/
0.
0-
1,
1+
04
0*
0)
1'
0&
1(
#290000000
b1100110010111100 G
0D
0A
0@
1=
0;
19
07
01
1-
0+
00
14
03
1)
0'
#292000000
b1111111111101110 G
1D
0C
1A
0?
0=
0<
09
08
11
0/
0-
0,
04
0)
0(
#294000000
b10011001100100000 G
0D
0A
1@
1?
1>
1;
1:
17
16
1/
1.
05
1+
14
13
1*
12
0%
1'
1&
#296000000
b10110011001010010 G
1D
1C
1B
0?
1=
0;
19
07
01
0/
1-
0+
10
04
1)
0'
#298000000
b11001100110000100 G
0D
1A
1?
0>
0=
1<
1;
0:
09
18
17
11
06
1/
0.
0-
1,
1+
14
03
0*
0)
1'
0&
1(
#300000000
b11100110010110110 G
1D
0C
0A
0@
1=
0;
19
07
01
1-
0+
00
04
1)
0'
#302000000
b11111111111101000 G
0D
1A
0?
0=
0<
09
08
11
0/
0-
0,
14
13
0)
02
0(
#304000000
b110011001100110010 F
b100000000000000000 G
0B
0A
0?
0=
0<
09
08
0/
1.
1-
05
0,
0+
00
04
1*
1)
12
1%
0'
1&
0#
0$
0"
0(
#306000000
b100011001100110010 G
1C
1?
1>
1=
1;
19
18
17
01
16
0-
10
14
0*
02
1'
0&
1(
#308000000
b100110011001100100 G
0C
1B
0?
1<
0;
1:
09
11
1-
15
1,
1+
04
03
0)
0(
#310000000
b101001100110010110 G
1C
1?
0>
0<
0:
0-
05
13
1*
1)
12
0'
#312000000
b101100110011001000 G
0C
0B
1A
0?
1<
1;
19
08
01
1/
1-
15
0,
00
14
0*
02
0%
1'
1&
1(
#314000000
b101111111111111010 G
1C
1?
1>
0=
0<
1:
09
11
0-
05
03
1*
0)
0(
#316000000
b110011001100101100 G
0C
1B
0?
1<
0;
0:
1-
15
1,
0+
04
13
0*
12
0'
1(
#318000000
b110110011001011110 G
1C
1?
0>
0<
1:
19
18
07
01
0-
05
10
03
1*
1)
1'
0&
#320000000
b111001100110010000 G
0C
0B
0A
1@
0?
1<
1;
09
11
1-
15
0,
14
0*
02
0(
#322000000
b111100110011000010 G
1C
1?
1>
1=
0;
0:
0-
05
13
1*
0)
12
0'
1(
#324000000
b111111111111110100 G
0C
1B
0?
0<
1:
19
08
01
0/
0.
15
00
04
03
0*
0(
#326000000
b11001100100110 G
1C
1?
0>
1<
1;
09
11
1-
05
1,
1+
13
1)
02
1%
1'
1&
1#
1$
1"
#328000000
b110011001011000 G
0C
0B
1A
0?
0<
0:
0-
15
14
1*
0)
12
0'
1(
#330000000
b1001100110001010 G
1C
1?
1>
0=
1<
0;
1:
19
18
17
01
06
1-
05
0,
10
03
0*
0(
#332000000
b1100110010111100 G
0C
1B
0?
0<
0:
11
0-
15
04
13
1*
1)
02
1'
0&
#334000000
b1111111111101110 G
1C
1?
0>
1<
1;
09
01
1/
1-
05
1,
0+
00
03
0*
0'
1(
#336000000
b10011001100100000 G
0C
0B
0A
0@
0<
1:
19
08
0-
15
14
1*
0)
12
0(
#338000000
b10110011001010010 G
1C
0?
1<
0;
0:
11
1-
05
0,
13
0*
02
0%
1'
1&
1(
#340000000
b11001100110000100 G
0C
1B
1?
1>
1=
1;
09
01
0-
15
10
04
03
1*
1)
0'
#342000000
b11100110010110110 G
1C
0?
0<
1:
19
18
07
1-
05
1,
1+
13
0)
12
0(
#344000000
b11111111111101000 G
0C
0B
1A
1?
0>
1<
0;
0:
11
0-
15
14
0*
02
1'
0&
1(
#346000000
b110110011001100101 F
b100000000000000000 G
0B
0A
0?
0>
0=
0<
0;
09
08
07
0/
0.
1-
05
1,
0+
10
14
13
0*
1)
02
1%
0'
0&
0#
0$
0"
1(
#348000000
b100011001100110010 G
1D
1B
1A
1@
1>
1<
1;
1:
19
1/
0-
0,
1+
12
0(
#350000000
b100110011001100100 G
0D
1C
0B
1?
0>
1=
0<
18
01
1.
1-
00
02
0%
1'
1&
1(
#352000000
b101001100110010110 G
1D
1B
0A
0?
0=
08
17
0/
0.
1,
12
0(
#354000000
b101100110011001000 G
0D
0C
1?
1>
1<
0;
18
11
1/
0-
0,
0+
1*
02
0'
1(
#356000000
b101111111111111010 G
1D
0B
0?
1=
0<
08
07
16
0/
1.
1-
12
0(
#358000000
b110011001100101100 G
0D
1C
1B
1A
0@
1?
0>
0=
18
01
1/
0-
1,
10
02
1'
0&
1(
#360000000
b110110011001011110 G
1D
0B
0?
1=
1<
1;
0:
08
17
0/
0.
0,
1+
12
0(
#362000000
b111001100110010000 G
0D
0C
1?
1>
0<
18
11
1/
1-
02
0'
1(
#364000000
b111100110011000010 G
1D
1B
0A
0?
0=
08
07
06
0/
1.
0-
15
1,
12
0(
#366000000
b111111111111110100 G
0D
1C
0B
1?
0>
1=
1<
0;
18
01
0.
0,
0+
00
0*
0)
02
#368000000
b11001100100110 G
1D
1B
1A
1@
1>
0<
08
17
1/
1-
12
1%
1'
1&
1#
1$
1"
1(
#370000000
b110011001011000 G
0D
0C
0?
0=
18
11
0/
1.
0-
1,
02
0(
#372000000
b1001100110001010 G
1D
0B
1?
0>
1=
1<
1;
1:
09
08
07
16
1/
1-
12
0'
1(
#374000000
b1100110010111100 G
0D
1C
1B
0A
0?
0=
18
01
0/
0.
0,
1+
10
02
0(
#376000000
b1111111111101110 G
1D
0B
1?
1>
0<
08
17
1/
0-
1,
12
1'
0&
1(
#378000000
b10011001100100000 G
0D
0C
0?
1=
1<
0;
18
11
0/
1.
1-
02
0(
#380000000
b10110011001010010 G
1D
1B
1A
0@
1?
0>
0=
08
07
01
06
0.
05
0,
0+
00
04
03
1*
0'
1(
#382000000
b11001100110000100 G
0D
1C
0B
0?
1=
0<
18
1/
0-
1,
12
0(
#384000000
b11100110010110110 G
1D
1B
0A
1?
1>
1<
1;
0:
08
17
11
0/
1.
1-
02
0%
1'
1&
1(
#386000000
b11111111111101000 G
0D
0C
0?
0=
18
1/
0-
0,
1+
12
0(
#388000000
b111001100110011000 F
b100000000000000000 G
0B
0?
0>
0=
0<
0;
0:
09
08
07
06
1/
1.
0-
05
0,
1+
00
1*
0)
02
0%
1'
1&
0#
0$
0"
0(
#390000000
b100011001100110010 G
1A
1@
1>
1=
1<
1;
17
0.
15
0+
13
1)
0'
1(
#392000000
b100110011001100100 G
0A
1?
0>
1:
07
16
1.
1-
05
1,
14
03
0*
0)
12
#394000000
b101001100110010110 G
1A
0@
0?
0:
19
17
0.
15
1+
13
1*
0(
#396000000
b101100110011001000 G
0A
1?
1>
0=
1:
07
01
06
1.
0-
0+
10
04
1)
02
1'
0&
1(
#398000000
b101111111111111010 G
1A
1@
0>
0:
09
18
17
0.
05
1+
14
03
0*
0)
12
#400000000
b110011001100101100 G
0A
0?
1:
07
16
1.
1-
15
0,
0+
13
1)
0(
#402000000
b110110011001011110 G
1A
0@
1?
1>
1=
0<
0:
19
17
11
0.
05
1+
04
1*
02
0'
1(
#404000000
b111001100110010000 G
0A
0?
1:
07
06
1.
0-
0+
14
03
0)
12
#406000000
b111100110011000010 G
1A
1@
0>
0:
09
08
16
0.
15
1+
13
0*
1)
0(
#408000000
b111111111111110100 G
0A
1?
1>
0=
1:
17
01
0/
05
0+
00
04
0)
02
#410000000
b11001100100110 G
1A
0@
0?
0:
19
07
06
1.
1-
1,
14
03
1*
12
1%
1'
1&
1#
1$
1"
1(
#412000000
b110011001011000 G
0A
1?
0>
1:
17
0.
15
1+
13
0*
1)
0(
#414000000
b1001100110001010 G
1A
1@
1>
1=
1<
0;
0:
09
18
07
11
16
1.
0-
05
0+
04
0)
02
#416000000
b1100110010111100 G
0A
0?
1:
17
0.
15
1+
03
1*
12
0'
1(
#418000000
b1111111111101110 G
1A
0@
1?
0>
0:
19
07
06
1.
1-
0,
0+
14
13
1)
0(
#420000000
b10011001100100000 G
0A
0?
1:
17
01
0.
05
1+
10
04
0*
0)
02
#422000000
b10110011001010010 G
1A
1@
1>
0=
0:
09
08
16
1.
0-
15
0+
03
1)
12
1'
0&
1(
#424000000
b11001100110000100 G
0A
1?
0>
1:
07
06
0.
1+
14
13
1*
0(
#426000000
b11100110010110110 G
1A
0@
0?
0:
19
17
11
1.
1-
05
1,
04
0*
0)
02
#428000000
b11111111111101000 G
0A
1?
1>
1=
0<
1:
07
16
0.
15
0+
03
1)
12
0'
1(
#430000000
b111100110011001011 F
b100000000000000000 G
0B
0A
0@
0?
0>
0=
0;
0:
09
07
01
06
1/
0.
0-
05
1,
1+
10
14
0*
0)
0%
1'
0&
0#
0$
0"
1(
#432000000
b100011001100110010 G
1D
1C
1@
1>
19
18
17
0/
0,
04
13
1*
1)
0(
#434000000
b100110011001100100 G
0D
1B
0@
1?
0>
1=
09
16
1/
1.
1-
0+
14
0*
#436000000
b101001100110010110 G
1D
0C
0B
1A
1@
1>
19
08
11
06
0/
15
1,
1+
04
03
0)
02
#438000000
b101100110011001000 G
0D
1B
0@
0?
0=
1<
09
16
1/
0.
0,
14
1*
1)
0'
1(
#440000000
b101111111111111010 G
1D
1C
1@
0>
1=
19
18
07
06
0/
05
1,
0+
13
0*
#442000000
b110011001100101100 G
0D
0B
0A
1?
1>
09
16
1/
1.
0-
0,
04
03
1*
0)
12
#444000000
b110110011001011110 G
1D
0C
1B
0@
0?
0=
0<
1;
19
08
06
0/
15
1,
1+
14
1)
0(
#446000000
b111001100110010000 G
0D
0B
1A
1@
0>
1=
09
16
1/
0.
0,
04
13
0*
#448000000
b111100110011000010 G
1D
1C
0@
1?
1>
19
18
17
0/
1,
0+
14
1*
0)
#450000000
b111111111111110100 G
0D
1B
1@
0>
0=
1<
09
01
06
05
0,
00
03
0*
02
#452000000
b11001100100110 G
1D
0C
0B
0A
0?
1=
19
08
16
1/
1.
1-
1+
04
13
1)
1%
1'
1&
1#
1$
1"
1(
#454000000
b110011001011000 G
0D
1B
0@
1?
1>
09
06
0/
15
1,
0+
14
1*
0)
#456000000
b1001100110001010 G
1D
1C
1@
0>
0=
0<
0;
1:
19
18
07
16
1/
0.
0,
04
03
0*
12
#458000000
b1100110010111100 G
0D
0B
1A
0@
0?
1=
09
06
0/
05
1,
1+
13
1)
0(
#460000000
b1111111111101110 G
1D
0C
1B
1@
1>
19
08
16
1/
1.
0-
0,
14
1*
0)
#462000000
b10011001100100000 G
0D
0B
0A
1?
0>
0=
1<
09
11
06
0/
15
1,
0+
04
03
0*
02
#464000000
b10110011001010010 G
1D
1C
0@
0?
1=
19
18
17
1/
0.
0,
14
1*
1)
0'
1(
#466000000
b11001100110000100 G
0D
1B
1@
1>
09
16
0/
1,
1+
04
13
0)
#468000000
b11100110010110110 G
1D
0C
0B
1A
0@
1?
0>
0=
0<
1;
19
08
06
1/
1.
1-
05
0+
03
0*
12
#470000000
b11111111111101000 G
0D
1B
1@
1>
09
16
0/
0,
14
1*
1)
0(
#472000000
b111111111111111110 F
b100000000000000000 G
0B
0A
0@
0?
0>
0;
0:
07
01
06
0/
0.
0-
0,
0+
00
04
13
0*
0)
02
0%
0'
0&
0#
0$
0"
0(
#474000000
b100011001100110010 G
1C
1B
1A
1>
1=
1:
19
16
15
14
03
#476000000
b100110011001100100 G
0C
1@
0>
1<
0:
18
06
#478000000
b101001100110010110 G
1C
0B
0@
1?
1>
0=
0<
1;
1:
09
08
17
16
05
#480000000
b101100110011001000 G
0C
1@
0>
1<
0:
18
06
#482000000
b101111111111111010 G
1C
1B
0A
0@
0?
0<
0;
08
07
#484000000
b110011001100101100 G
0C
1@
1>
1=
1:
19
16
15
04
#486000000
b110110011001011110 G
1C
0B
0@
1?
0>
1<
0:
18
06
#488000000
b111001100110010000 G
0C
1@
1>
0=
0<
1;
1:
09
08
17
16
05
#490000000
b111100110011000010 G
1C
1B
1A
0>
1<
0:
18
06
#492000000
b111111111111110100 G
0C
0@
0?
0<
0;
08
07
#494000000
b11001100100110 G
1C
0B
1@
1>
1=
1:
19
11
16
1/
1.
1-
15
1,
1+
10
14
13
1*
1)
12
1%
1'
1&
1#
1$
1"
1(
#496000000
b110011001011000 G
0C
0@
1?
0>
1<
0:
18
06
#498000000
b1001100110001010 G
1C
1B
0A
1@
1>
0=
0<
1;
1:
09
08
17
16
05
#500000000
b1100110010111100 G
0C
0@
0?
1<
0:
18
06
#502000000
b1111111111101110 G
1C
0B
1@
0>
0<
0;
08
07
#504000000
b10011001100100000 G
0C
0@
1?
1>
1=
1:
19
16
15
04
#506000000
b10110011001010010 G
1C
1B
1A
0>
1<
0:
18
06
#508000000
b11001100110000100 G
0C
1@
1>
0=
0<
1;
1:
09
08
17
16
05
#510000000
b11100110010110110 G
1C
0B
0@
0?
1<
0:
18
06
#512000000
b11111111111101000 G
0C
1@
0>
0<
0;
08
07
#514000000
b11001100110001 F
b100000000000000000 G
0B
0A
0@
0?
0=
0<
09
08
0/
1.
1-
05
0,
0+
00
14
1*
1)
1%
0'
1&
1#
1$
1"
0(
#516000000
b100011001100110010 G
1D
1A
1>
1<
17
16
1/
1,
03
0*
0)
1(
#518000000
b100110011001100100 G
0D
1C
0A
1@
0>
1=
0<
1;
07
0/
0.
0-
15
1+
13
1*
02
#520000000
b101001100110010110 G
1D
1A
1>
1<
17
06
1/
05
0,
0+
04
1)
#522000000
b101100110011001000 G
0D
0C
1B
0A
0@
1?
0>
0=
0;
1:
07
0/
1.
15
1,
03
0*
0)
1'
0(
#524000000
b101111111111111010 G
1D
1A
1>
0<
1;
17
01
16
1/
0,
1+
13
1*
12
#526000000
b110011001100101100 G
0D
1C
0A
1@
0>
1=
1<
07
0/
0.
1-
05
1,
14
03
0*
1)
#528000000
b110110011001011110 G
1D
1A
1>
0<
0;
0:
19
17
06
1/
15
0,
0+
13
0)
02
1(
#530000000
b111001100110010000 G
0D
0C
0B
0@
0?
0=
1;
07
0/
1.
05
1,
04
1*
#532000000
b111100110011000010 G
1D
0A
1@
0>
1=
1<
17
16
1/
0,
1+
03
0*
1)
#534000000
b111111111111110100 G
0D
1C
1A
1>
0<
0;
1:
07
11
15
1,
10
13
1*
12
#536000000
b11001100100110 G
1D
0A
0@
1?
0>
0=
1;
17
06
0/
0.
0-
05
0+
14
03
0)
0%
0'
0&
0#
0$
0"
0(
