mysite/Users/all_users/user_1/Bugs/BCIN/BCIN_trf.vcd
$date
	Sat Mar 16 23:55:50 2019
$end
$timescale
	1us
$end
$version
	ModelSim Version 10.1c
$end
$scope module BCIN_tb $end
$var wire 1 ! compareout512 $end
$var wire 1 " comcheck[35] $end
$var wire 1 # comcheck[34] $end
$var wire 1 $ comcheck[33] $end
$var wire 1 % comcheck[32] $end
$var wire 1 & comcheck[31] $end
$var wire 1 ' comcheck[30] $end
$var wire 1 ( comcheck[29] $end
$var wire 1 ) comcheck[28] $end
$var wire 1 * comcheck[27] $end
$var wire 1 + comcheck[26] $end
$var wire 1 , comcheck[25] $end
$var wire 1 - comcheck[24] $end
$var wire 1 . comcheck[23] $end
$var wire 1 / comcheck[22] $end
$var wire 1 0 comcheck[21] $end
$var wire 1 1 comcheck[20] $end
$var wire 1 2 comcheck[19] $end
$var wire 1 3 comcheck[18] $end
$var wire 1 4 comcheck[17] $end
$var wire 1 5 comcheck[16] $end
$var wire 1 6 comcheck[15] $end
$var wire 1 7 comcheck[14] $end
$var wire 1 8 comcheck[13] $end
$var wire 1 9 comcheck[12] $end
$var wire 1 : comcheck[11] $end
$var wire 1 ; comcheck[10] $end
$var wire 1 < comcheck[9] $end
$var wire 1 = comcheck[8] $end
$var wire 1 > comcheck[7] $end
$var wire 1 ? comcheck[6] $end
$var wire 1 @ comcheck[5] $end
$var wire 1 A comcheck[4] $end
$var wire 1 B comcheck[3] $end
$var wire 1 C comcheck[2] $end
$var wire 1 D comcheck[1] $end
$var wire 1 E comcheck[0] $end
$var wire 18 F ina[17:0] $end
$var wire 18 G inb[17:0] $end
$upscope $end
$enddefinitions $end
#0
$dumpvars
0.
0B
0:
0"
0@
0?
0(
04
03
0-
0/
0D
0'
0&
05
09
0<
b100000000000000000 F
08
00
07
01
0$
0!
0A
0;
0>
0=
0*
0%
1#
02
0)
0+
0,
0C
b100000000000000000 G
0E
06
$end
#10
#11
#12
#14
#27
#38
#54
1.
0#
1$
b100011001100110010 G
1-
13
1*
1%
1&
12
1)
11
#56
0.
0&
1,
b100110011001100100 G
1(
03
0*
10
#58
1.
0(
1+
b101001100110010110 G
13
1*
0%
1'
1/
1&
02
0)
0,
0-
00
#60
0.
0&
1,
b101100110011001000 G
1(
03
0*
10
#62
0/
0'
12
0,
0+
13
0(
01
b101111111111111010 G
00
#64
1.
1&
1)
0$
03
1-
b110011001100101100 G
1*
1%
10
#66
0.
1/
0&
02
1,
13
1(
b110110011001011110 G
0*
00
#68
1.
03
1+
0-
b111001100110010000 G
1*
0%
1'
1&
0)
0,
0(
10
#70
0.
0&
12
1,
13
1(
11
b111100110011000010 G
0*
#72
0/
0'
0,
0+
b111111111111110100 G
03
0(
00
#74
1.
1#
1"
1$
b000011001100100110 G
1-
13
1*
1%
1&
02
1)
10
#76
0.
1/
0&
1,
03
1(
b000110011001011000 G
0*
00
#78
1.
0(
1+
b001001100110001010 G
13
1*
0%
1'
1&
12
0)
0,
01
0-
10
#80
0/
0&
1,
03
1(
b001100110010111100 G
0*
00
#82
0.
0'
02
0,
0+
b001111111111101110 G
13
0(
10
#84
1.
1/
1&
1)
0$
03
1-
b010011001100100000 G
1*
1%
00
#86
0.
0&
12
1,
13
1(
11
b010110011001010010 G
0*
#88
1.
03
1+
0-
b011001100110000100 G
1*
0%
1'
1&
0)
0,
0(
10
#90
0/
0&
02
1,
13
1(
b011100110010110110 G
0*
00
#92
0.
0'
0,
0+
b011111111111101000 G
03
0(
10
#94
1.
0#
0"
1$
1-
14
b100000000000000000 G
1*
1%
1&
12
1)
b100011001100110011 F
00
#96
0.
1:
1@
1+
18
1(
1>
b100011001100110010 G
1A
1/
1D
0&
02
1?
15
1C
10
#98
1B
04
13
1=
17
0+
08
0:
b100110011001100100 G
0*
0%
1'
0D
1&
12
0)
0A
19
05
01
00
#100
0B
1+
0=
0(
1:
b101001100110010110 G
0/
1D
0'
02
18
15
1<
0C
10
#102
1.
1B
0:
1=
07
1A
0-
0@
b101100110011001000 G
1*
1/
0D
0&
12
0+
09
05
14
11
1(
16
#104
17
0=
0$
1+
08
1;
1:
b101111111111111010 G
1%
1'
1D
1&
02
0A
15
0<
1C
0(
00
#106
0B
04
03
0+
1=
1(
0:
b110011001100101100 G
0*
0/
0D
0&
1)
18
19
05
10
#108
14
1B
01
1:
0=
07
1+
0?
0(
1@
b110110011001011110 G
1A
1D
0'
12
08
1<
0C
06
00
#110
0.
0B
17
1=
1(
0:
b111001100110010000 G
1*
0%
1/
0D
1&
02
0+
09
15
10
#112
11
13
0=
1+
0A
0;
04
b111100110011000010 G
1'
0/
1D
0&
12
18
19
05
0<
1C
0(
#114
1B
1=
0@
07
0+
08
1:
b111111111111110100 G
0*
0D
0'
02
0)
1A
15
16
00
#116
1.
0B
1"
17
1-
14
b000011001100100110 G
1/
1D
1&
05
09
1<
10
1#
0C
1$
0:
0=
1%
12
1,
01
1(
#118
1B
1=
1+
0A
0(
1:
b000110011001011000 G
1'
0D
0&
02
18
15
00
#120
0>
1@
1?
1(
04
03
0/
1D
1&
19
0<
10
07
0+
1A
1;
0:
0=
1*
0%
08
1C
b001001100110001010 G
06
#122
0.
0B
1:
1+
1=
0(
14
b001100110010111100 G
1/
0D
0'
12
18
05
11
#124
1B
0=
17
0A
1(
0:
b001111111111101110 G
0*
1D
0&
02
1)
0+
09
15
1<
0C
00
#126
0B
1:
13
1=
07
08
0(
0$
b010011001100100000 G
1%
1'
0/
0D
1&
12
1+
05
04
01
16
10
#128
0=
0@
0+
18
0;
b010110011001010010 G
1*
1D
0&
02
1A
19
15
0<
1C
1(
00
#130
1.
1B
14
1=
17
0A
0-
0:
b011001100110000100 G
1/
0D
0'
12
1+
09
05
11
0(
#132
0B
04
03
0=
07
08
1:
b011100110010110110 G
0*
0%
1'
0/
1D
1&
0)
0+
1<
0C
06
10
#134
1B
1=
1@
1+
0?
1(
0:
b011111111111101000 G
0D
0&
02
1A
19
15
18
00
#136
0.
0#
13
0"
0@
0B
0+
08
b100000000000000000 G
1$
0=
1%
0'
1)
0A
09
05
0<
b100110011001100110 F
1-
10
#138
1B
1/
01
03
1=
1@
1?
1>
b100011001100110010 G
0%
1'
17
1&
12
0)
19
0,
14
1C
00
#140
07
0@
1+
18
0(
04
b100110011001100100 G
1*
0'
02
1A
09
1,
1<
0C
16
10
#142
0B
1C
17
0A
1;
14
13
0&
1)
19
0,
0<
11
b101001100110010110 G
1(
#144
1.
1@
0+
04
b101100110011001000 G
0?
0/
1&
15
09
1<
00
0C
0$
1A
1%
1'
12
0)
08
1,
01
06
#146
1B
14
0@
07
03
0;
1:
b101111111111111010 G
0'
02
1)
19
0,
0<
1C
0(
16
10
#148
17
0C
1+
18
04
b110011001100101100 G
0*
1'
0&
12
0)
0A
09
1,
1<
11
#150
0B
0,
1/
1@
1?
1;
0>
b110110011001011110 G
0%
07
1&
02
1)
1A
19
05
0<
1C
1(
06
00
#152
0C
0+
08
b111001100110010000 G
14
13
0'
0)
0A
09
1,
1<
01
16
10
#154
04
1B
1C
17
18
0;
0@
b111100110011000010 G
1'
0&
12
1)
0,
0<
11
0(
0:
#156
0.
07
03
1@
1A
0-
14
b111111111111110100 G
0/
0'
02
0)
0?
19
15
1<
0C
06
00
#158
0B
1"
1+
1(
04
b000011001100100110 G
1&
09
0<
10
1#
1C
1$
0A
1;
1*
1%
12
08
1,
01
16
#160
17
0C
0@
1A
b000110011001011000 G
14
13
1'
0&
1)
19
0,
1<
11
0(
#162
1B
1:
1@
0+
b001001100110001010 G
1/
0'
05
09
0<
18
00
07
0;
1>
0=
02
0)
1?
1,
1C
06
#164
17
0C
0A
1(
04
b001100110010111100 G
0%
1&
12
1)
19
0,
1<
01
10
#166
1.
0B
0@
1+
14
03
0/
0&
09
0<
00
1A
1;
0*
1'
02
0)
08
1,
1C
b001111111111101110 G
16
#168
07
0C
0A
0(
04
b010011001100100000 G
0'
12
1)
0,
19
15
1<
11
06
#170
14
1B
01
0:
13
1@
17
0+
18
0;
0$
b010110011001010010 G
1%
1'
1&
0)
0?
1,
0<
1C
10
#172
0@
08
1(
04
b011001100110000100 G
1/
0&
02
1)
1A
09
0,
1<
0C
16
00
#174
0B
1C
1,
07
0A
1;
b011100110010110110 G
1*
0'
12
1+
19
05
0<
11
0(
06
#176
17
14
03
1@
18
0>
b011111111111101000 G
1A
0%
1'
1&
02
0)
1?
09
0,
1<
0C
10
#178
0#
b101001100110011001 F
13
0"
0@
07
0?
0;
1$
b100000000000000000 G
12
0A
0<
01
08
00
#180
04
17
1>
03
0.
1@
1?
1-
1:
b100011001100110010 G
0*
0/
1D
0'
02
18
19
15
1<
10
#182
11
13
0@
1=
1;
0:
b100110011001100100 G
1*
1/
0D
0&
1)
05
0<
1C
1(
16
#184
1.
03
0=
0$
0?
0;
1@
b101001100110010110 G
0*
1%
1'
1D
1&
12
01
06
00
#186
14
1B
11
0.
0@
1=
0-
1:
b101100110011001000 G
1*
0/
0D
0'
0)
1,
09
15
1<
0C
16
#188
0:
13
0=
1@
1?
1;
0>
b101111111111111010 G
0*
1'
1/
1D
0&
01
06
10
#190
1.
03
0@
1=
0;
b110011001100101100 G
1*
0D
0'
02
1)
05
0<
1C
0(
16
00
#192
0.
13
0=
1@
08
1;
1:
b110110011001011110 G
0*
0%
1'
0/
1D
1&
0?
19
11
1-
06
#194
04
0B
01
03
1=
0@
1A
0:
b111001100110010000 G
1*
1/
0D
0'
12
0)
15
1<
0C
16
10
#196
1.
13
1@
1?
0;
1>
b111100110011000010 G
0*
1'
0/
1D
0&
0<
11
06
#198
0.
0,
03
0@
0=
1;
1:
b111111111111110100 G
0D
0'
02
0+
09
05
1C
0-
16
00
#200
1#
0:
13
1"
1$
0?
b000011001100100110 G
1@
1=
1*
1%
1/
1D
1&
1)
1<
01
1(
06
10
#202
1.
1B
11
0@
0=
0;
14
b000110011001011000 G
0*
1'
0/
0D
0&
15
0C
16
#204
0.
1:
1@
1?
1-
03
1D
0'
19
0<
00
07
1;
0>
1=
1*
12
0)
18
01
b001001100110001010 G
06
#206
11
13
0@
0=
0;
b001100110010111100 G
0*
0%
1'
1/
0D
1&
05
1C
16
#208
1.
03
1=
1@
0?
0(
0:
b001111111111101110 G
1*
0/
1D
0'
02
1)
1<
06
10
#210
0.
0B
01
13
0=
0A
1;
1:
b010011001100100000 G
0*
1'
0D
0&
1,
09
15
04
0C
0-
16
00
#212
1=
0@
b010110011001010010 G
0;
03
1*
1/
1D
0'
12
0)
0<
11
06
#214
1.
10
1>
13
1@
1?
0$
b011001100110000100 G
0*
1%
1'
0/
0D
1&
01
05
1<
1C
16
0:
#216
0.
03
0=
0@
08
1;
1:
b011100110010110110 G
1*
1D
0&
02
1)
1(
19
1-
06
00
#218
1B
11
1=
1@
0?
0;
14
b011111111111101000 G
0*
1/
0D
0'
15
0<
0C
16
#220
0B
0>
0"
0@
1+
0-
04
b100000000000000000 G
1'
09
b101100110011001100 F
10
0#
1$
0:
0=
0%
12
0)
05
01
06
#222
1.
1B
1=
0+
1?
1>
b100011001100110010 G
1A
1*
0'
18
0,
1<
11
16
#224
0B
1,
1@
17
08
1;
0$
b100110011001100100 G
1%
1'
0/
1&
0?
15
01
1-
06
00
#226
0.
1B
0@
18
0;
1:
b101001100110010110 G
0A
0'
1+
11
0-
16
#228
1.
0B
0>
0,
07
0+
1?
1;
1@
b101100110011001000 G
0*
1'
0&
1)
08
05
14
01
10
#230
0.
1B
1,
18
0;
0:
b101111111111111010 G
1A
0'
0?
19
15
11
1-
06
#232
1.
0B
17
08
1;
0@
b110011001100101100 G
0%
1'
1/
1&
1+
0,
01
16
00
#234
0.
1B
1>
13
0=
1@
0+
1?
0;
1:
b110110011001011110 G
0A
1*
0'
18
05
04
11
0-
06
#236
1.
0B
07
08
1;
0@
b111001100110010000 G
1'
0&
15
1,
01
10
#238
0.
1B
17
1+
1A
0;
0:
b111100110011000010 G
0'
0?
09
0,
11
1-
16
#240
0B
14
1@
0+
18
1;
0>
b111111111111110100 G
0*
0/
0(
0)
1?
05
01
0-
06
00
#242
1.
1#
1,
1:
1"
0@
1B
0A
0;
1$
b000011001100100110 G
1%
1'
07
1&
08
15
11
#244
0.
0B
1@
18
1;
b000110011001011000 G
0?
0'
1+
0,
01
1-
16
10
#246
1.
1B
1>
08
04
03
1/
0&
05
19
0<
00
17
1A
0;
0:
1=
1'
02
1?
1,
b001001100110001010 G
06
#248
0.
0B
0@
0+
0-
b001100110010111100 G
1*
0'
18
11
1;
16
#250
1.
1B
1:
0,
07
1+
08
0;
1@
b001111111111101110 G
0A
0%
1'
1&
0?
15
01
10
#252
0.
0B
0@
18
1;
14
b010011001100100000 G
0'
05
1,
11
1-
06
#254
1B
0:
17
0+
1A
0;
0>
b010110011001010010 G
0*
1'
0/
0&
1)
1?
09
01
0-
16
00
#256
1.
0B
07
1+
1;
1@
b011001100110000100 G
0?
0'
15
0,
11
08
#258
0.
1B
1:
13
1,
0@
18
0;
0$
b011100110010110110 G
1%
1'
1&
0A
05
04
01
1-
06
10
#260
1.
0B
1>
0=
17
0+
1?
1;
1@
b011111111111101000 G
1*
0'
08
0,
11
16
#262
0.
0:
0"
0@
0?
0-
14
03
07
0&
b101111111111111111 F
00
0#
1$
0;
0>
0*
0%
0)
01
b100000000000000000 G
06
#264
1.
1B
1:
13
1/
0$
1?
1;
1>
b100011001100110010 G
1*
1%
1'
17
1D
1&
12
1+
15
1C
16
#266
07
1=
0+
0?
0;
04
b100110011001100100 G
0/
0D
0'
1)
1A
19
11
1-
#268
0.
0>
1@
1?
0-
14
03
1/
1D
0&
09
1<
10
17
0C
1+
0A
1;
0:
0=
0*
1'
0)
18
1,
01
b101001100110010110 G
1(
06
#270
07
1=
0+
0?
0;
04
b101100110011001000 G
0/
0D
0'
1)
1A
19
11
1-
#272
0B
01
13
0=
0@
0A
0-
14
b101111111111111010 G
1D
02
0)
08
09
0,
0<
1C
0(
00
#274
1.
17
1:
1+
1A
1;
1>
b110011001100101100 G
1*
0%
1'
1/
0D
1&
1?
05
04
11
16
#276
07
01
03
1=
1@
0+
0?
0;
14
b110110011001011110 G
0/
1D
0'
1)
0A
19
0C
1-
10
#278
0.
0>
1+
0-
04
b111001100110010000 G
1?
1/
0D
0&
09
1<
17
1A
1;
0:
0=
0*
1'
0)
18
1,
11
1(
06
#280
1B
13
1=
07
0?
0;
14
b111100110011000010 G
0/
1D
0'
12
1)
0+
19
1C
1-
#282
0=
0@
0A
0-
04
b111111111111110100 G
0D
0)
08
09
0,
0<
01
0(
00
#284
1.
1>
1"
17
1+
03
1/
1D
1&
1#
0C
1$
1A
1;
1:
1*
1%
1'
1?
15
11
b000011001100100110 G
16
#286
07
13
1=
1@
0+
0?
0;
14
b000110011001011000 G
0/
0D
0'
02
1)
0A
19
01
1-
10
#288
0.
0B
0>
18
0-
04
b001001100110001010 G
1/
1D
0&
09
1<
17
1C
1+
1A
1;
0:
0=
0*
1'
0)
1?
1,
11
1(
06
#290
07
1=
0@
0A
b001100110010111100 G
14
03
0D
0'
1-
1)
0+
19
01
0;
00
#292
0C
0=
0?
0-
04
b001111111111101110 G
0/
1D
0)
1A
09
0,
0<
11
0(
08
#294
1.
17
1:
13
1@
1+
1?
1;
1>
b010011001100100000 G
1*
0%
1'
1/
0D
1&
12
0A
05
14
16
#296
1B
01
1=
07
0?
0;
04
b010110011001010010 G
0/
1D
0'
1)
0+
19
1C
1-
10
#298
0.
0>
1+
0-
14
03
1?
1/
0D
0&
09
1<
17
1A
1;
0:
0=
0*
1'
0)
18
1,
11
b011001100110000100 G
1(
06
#300
07
0C
1=
0@
0A
0;
04
b011100110010110110 G
1D
0'
1)
0+
19
01
1-
00
#302
13
0=
0?
0-
14
b011111111111101000 G
0/
0D
02
0)
1A
09
0,
0<
11
0(
08
#304
1.
0#
04
0"
0B
0A
1-
0$
b100000000000000000 G
1*
1%
1&
12
1)
b110011001100110010 F
#306
17
01
1(
1=
18
1;
1>
b100011001100110010 G
0*
1'
0&
02
1?
19
14
1C
0-
16
10
#308
04
1B
0C
1,
0?
0;
1:
03
0(
0)
1+
09
15
1<
11
b100110011001100100 G
1-
#310
0:
1?
b101001100110010110 G
0>
13
1*
0'
12
1)
05
0<
1C
0-
#312
0B
08
1-
14
b101100110011001000 G
1/
1&
15
19
1<
00
0C
1A
1;
0*
0%
1'
02
0?
0,
01
1(
#314
1C
0=
1?
b101111111111111010 G
1>
03
1*
0(
0)
09
05
0<
11
0-
1:
#316
1B
0:
1(
1,
0?
0;
04
13
0*
0'
12
0+
15
1<
0C
b110011001100101100 G
1-
#318
07
01
0>
03
1?
0-
1:
b110110011001011110 G
1*
1'
0&
1)
18
19
05
0<
1C
10
#320
0B
0C
0(
0,
1@
0A
1;
14
b111001100110010000 G
0*
02
0?
09
15
1<
11
1-
#322
0:
1(
1=
1?
b111100110011000010 G
1>
13
1*
0'
12
0)
05
0-
1C
0;
#324
04
1B
01
03
0.
0?
0(
1:
b111111111111110100 G
0*
0/
08
19
15
0<
0C
00
#326
1#
1,
11
13
1"
1$
1?
1;
0>
b000011001100100110 G
1%
1'
1&
02
1)
1+
09
05
1<
1C
1-
#328
0B
0:
1A
0-
14
b000110011001011000 G
1*
0'
12
0)
0?
15
0<
0C
1(
#330
17
01
1:
03
0,
0=
18
0;
1>
b001001100110001010 G
0*
0(
1?
19
05
1<
1C
1-
06
10
#332
04
1B
0C
0?
b001100110010111100 G
0:
13
1*
1'
0&
02
1)
15
0<
11
0-
#334
1,
1C
03
1?
1;
0>
b001111111111101110 G
0*
1/
0'
1(
0+
09
05
1<
01
1-
00
#336
0B
14
0@
0A
0-
1:
b010011001100100000 G
1*
12
0)
08
19
15
0<
0C
0(
#338
1C
13
0?
0;
0:
b010110011001010010 G
0*
0%
1'
1&
02
1(
0,
05
1<
11
1-
#340
1B
0C
03
1=
1?
1;
1>
b011001100110000100 G
1*
0'
1)
09
15
04
01
0-
10
#342
07
0(
1,
1+
0?
b011100110010110110 G
1:
13
12
0)
18
19
05
0<
1C
1-
#344
14
0B
11
0:
1(
1A
0;
0>
b011111111111101000 G
0*
1'
0&
02
1?
15
1<
0C
0-
#346
0#
0"
0$
0+
0?
b100000000000000000 G
0=
0A
1%
0/
0'
1)
08
09
05
0<
b110110011001100101 F
1-
#348
1B
1>
0(
1@
1A
1;
1:
b100011001100110010 G
1/
1D
12
1+
19
0,
1<
0-
#350
1.
0B
01
1=
18
1-
0>
b100110011001100100 G
0%
1'
0D
1&
02
1?
0<
1C
1(
00
#352
0.
1B
0=
17
0?
0(
b101001100110010110 G
0/
1D
12
0A
1,
08
#354
0C
1(
0+
18
0;
1>
b101100110011001000 G
1*
1/
0D
0'
02
1?
0,
1<
11
0-
#356
1.
0B
1=
07
08
1-
b101111111111111010 G
0/
1D
12
0?
0<
0(
16
#358
1B
01
0=
0@
18
0-
0>
b110011001100101100 G
1A
1'
1/
0D
0&
02
1?
1,
1C
1(
10
#360
0.
0B
1=
17
1+
0?
1;
0:
b110110011001011110 G
0/
1D
12
08
0,
1<
0(
#362
0C
18
1-
1>
b111001100110010000 G
1/
0D
0'
02
1?
0<
11
1(
#364
1.
1B
1,
0=
07
0?
0-
b111100110011000010 G
0/
1D
12
06
0A
15
0(
08
#366
0.
0B
01
1=
0+
1?
0;
0>
b111111111111110100 G
0*
0D
02
0)
18
0,
1<
1C
00
#368
1B
1$
1"
1/
1#
1A
1-
1@
b000011001100100110 G
1%
1'
17
1D
1&
12
08
0<
1(
1>
#370
1.
0C
0=
0?
0-
b000110011001011000 G
0/
0D
02
18
1,
11
0(
#372
0B
0>
1(
1=
07
08
1;
1:
b001001100110001010 G
1/
1D
0'
12
1?
09
1<
1-
16
#374
0.
1B
1C
0=
1+
0?
0(
b001100110010111100 G
0/
0D
02
0A
0,
01
18
10
#376
0B
17
1?
0-
1>
b001111111111101110 G
1'
1/
1D
0&
12
08
1,
0<
1(
#378
1.
0C
0(
1=
0?
0;
b010011001100100000 G
0/
0D
02
18
1<
11
1-
#380
0.
1B
0@
0+
1(
04
03
1D
0'
05
08
00
07
1A
b010110011001010010 G
0>
0=
1*
1?
0,
01
06
#382
0B
1=
0?
0-
b011001100110000100 G
1/
0D
12
18
1,
0<
1C
0(
#384
1.
1B
0:
1(
17
08
1;
1>
b011100110010110110 G
0%
1?
0/
1D
1&
02
0A
1'
1<
11
1-
#386
0=
0?
0-
b011111111111101000 G
1/
0D
12
1+
0,
0C
0(
18
#388
0#
0>
0"
0B
08
0;
0$
b100000000000000000 G
07
02
0<
b111001100110011000 F
#390
0.
17
1=
1@
1A
b100011001100110010 G
1>
13
0'
1(
1)
0+
15
1<
1;
#392
1.
07
14
1,
1?
b100110011001100100 G
1:
03
0*
12
0)
0A
05
1-
16
0>
#394
0.
17
0@
1+
b101001100110010110 G
0:
13
1A
1*
0?
19
15
0(
#396
1.
07
1:
0=
0+
0A
0-
1>
b101100110011001000 G
1'
0&
02
1)
1?
04
01
1(
06
10
#398
0.
17
0>
1@
1+
1A
b101111111111111010 G
0:
03
0*
12
0)
18
09
05
14
#400
1.
07
0+
b110011001100101100 G
1:
13
0A
0?
0(
1)
15
0,
1-
16
#402
04
17
1>
0.
1=
0@
1+
1?
1(
0:
b110110011001011110 G
1*
0'
02
1A
19
05
0<
11
#404
1.
07
1:
0A
b111001100110010000 G
14
03
0?
12
0)
0+
0-
06
#406
0.
0>
1@
1+
08
b111100110011000010 G
0:
13
0*
1)
1A
09
15
0(
16
#408
17
1>
0=
0+
1?
1:
b111111111111110100 G
0/
02
0)
0A
05
04
01
00
#410
1.
1"
0@
0?
1-
14
03
07
1'
19
1#
1$
1A
b000011001100100110 G
0:
1*
1%
1&
12
1,
1(
06
#412
0.
17
0>
1+
b000110011001011000 G
1:
13
0A
0*
1)
1?
15
0(
#414
04
07
1>
1.
1=
1@
0+
18
0;
0:
b001001100110001010 G
02
0)
1A
09
05
1<
11
0-
16
#416
0.
17
1+
b001100110010111100 G
1:
03
0A
1*
0'
12
0?
15
1(
#418
1.
07
14
0@
0+
1A
b001111111111101110 G
0:
13
0(
1)
1?
19
0,
1-
06
0>
#420
0.
17
1:
1+
0?
04
b010011001100100000 G
0*
02
0)
0A
05
01
10
#422
1.
0:
03
0=
1@
0+
08
0-
1>
b010110011001010010 G
1'
0&
12
1)
1A
09
15
1(
16
#424
0.
07
14
0A
b011001100110000100 G
1:
13
1*
1?
1+
0(
06
0>
#426
1.
17
04
1,
0@
0?
1-
0:
b011100110010110110 G
0*
02
0)
1A
19
05
11
#428
0.
07
1>
03
1=
0+
1?
1(
1:
b011111111111101000 G
0'
12
1)
0A
15
0<
16
#430
0#
0:
b111100110011001011 F
0"
0$
0?
b100000000000000000 G
0>
0=
0%
1/
1'
0)
1+
09
05
14
01
0-
06
#432
17
04
1@
18
b100011001100110010 G
1>
13
1*
0/
1D
1)
19
0,
1C
0(
#434
1.
1B
0>
1=
0@
1?
1-
14
b100110011001100100 G
0*
1/
0D
0+
09
16
#436
0B
11
03
1,
1@
1+
08
1>
b101001100110010110 G
0/
1D
02
0)
1A
19
15
04
0C
06
#438
0.
1B
0=
0@
0?
1(
14
b101100110011001000 G
1*
1/
0D
0'
1)
09
0,
1<
16
#440
07
13
1,
1=
1@
18
0>
b101111111111111010 G
0*
0/
1D
0+
19
05
1C
06
#442
1.
0B
04
0A
b110011001100101100 G
1>
03
1*
1/
0D
12
0)
1?
09
0,
0-
16
#444
1B
1,
0=
0@
1+
0?
1;
14
b110110011001011110 G
0/
1D
1)
08
19
15
0<
0C
0(
06
#446
0.
0B
04
1=
1@
1A
b111001100110010000 G
0>
13
0*
1/
0D
09
0,
16
#448
17
1>
0@
0+
1?
14
b111100110011000010 G
1*
0/
1D
0)
18
19
1,
1C
#450
1B
03
1@
0=
0>
b111111111111110100 G
0*
0D
02
0,
09
05
1<
01
06
00
#452
1.
0B
1"
1+
1-
04
13
1/
1D
1&
19
08
1#
1$
0A
b000011001100100110 G
1=
1%
1'
1)
0?
0C
1(
16
#454
1B
1>
1,
0@
1?
14
b000110011001011000 G
1*
0/
0D
0)
0+
09
15
06
#456
04
07
1:
03
0.
0=
1@
18
0;
0>
b001001100110001010 G
0*
1/
1D
12
19
0,
0<
1C
16
#458
0B
13
1,
1=
0@
1+
0?
0(
b001100110010111100 G
0/
0D
1)
1A
09
05
06
#460
1.
1B
1>
1@
08
0-
14
b001111111111101110 G
1*
1/
1D
0)
19
0,
0C
16
#462
0B
04
03
1,
0=
0+
1?
0>
b010011001100100000 G
0*
0/
0D
02
0A
09
15
1<
11
06
#464
0.
17
1=
0@
0?
1(
14
b010110011001010010 G
1*
1/
1D
0'
1)
18
19
0,
1C
#466
1B
1>
1@
b011001100110000100 G
04
13
0/
0D
0)
1+
09
1,
16
#468
1.
0B
0@
0+
1-
03
1/
1D
19
0<
08
1A
1;
0>
0=
0*
12
1?
05
0C
b011100110010110110 G
06
#470
1B
1>
1@
0(
14
b011111111111101000 G
1*
0/
0D
1)
09
0,
16
#472
0.
0B
0>
0"
0@
0?
0-
04
13
07
0&
b111111111111111110 F
0#
0$
0A
0;
0:
0*
0%
02
0)
01
b100000000000000000 G
06
#474
1B
1:
1=
1A
b100011001100110010 G
1>
03
19
15
14
1C
16
#476
0>
1@
18
1<
0C
b100110011001100100 G
06
0:
#478
0B
1>
0=
17
1?
1;
0@
b101001100110010110 G
08
09
05
0<
1C
16
1:
#480
0>
1@
18
1<
0C
b101100110011001000 G
06
0:
#482
1B
1C
07
0A
0?
0;
0@
b101111111111111010 G
0<
08
#484
0C
1@
19
b110011001100101100 G
04
1>
1=
15
16
1:
#486
18
0B
1C
0@
1?
1<
0>
b110110011001011110 G
06
0:
#488
17
1:
0=
1@
08
1;
1>
b111001100110010000 G
09
05
0<
0C
16
#490
1B
1C
18
1A
1<
0>
b111100110011000010 G
06
0:
#492
07
0@
0?
0;
0C
b111111111111110100 G
0<
08
#494
1.
0B
1>
1"
1@
b000011001100100110 G
1-
14
13
1/
1&
1,
19
10
1#
1C
1$
1:
1=
1*
1%
1'
12
1)
1+
15
11
1(
16
#496
18
0C
0@
1?
1<
0>
b000110011001011000 G
06
0:
#498
1B
1:
0=
1@
08
1;
1>
b001001100110001010 G
17
0A
09
05
0<
1C
16
#500
18
0:
0@
0?
1<
0C
b001100110010111100 G
06
#502
0B
1C
07
1@
08
0;
0>
b001111111111101110 G
0<
#504
1?
0C
0@
19
b010011001100100000 G
04
1>
1=
15
16
1:
#506
1B
1C
18
1A
1<
0>
b010110011001010010 G
06
0:
#508
17
1:
0=
1@
08
1;
1>
b011001100110000100 G
09
05
0<
0C
16
#510
18
0B
0:
0@
0?
1<
1C
b011100110010110110 G
06
#512
07
0>
1@
08
0;
0C
b011111111111101000 G
0<
#514
0/
0'
b000011001100110001 F
0,
0@
0+
0A
0(
14
b100000000000000000 G
00
#516
17
1A
b100011001100110010 G
1>
03
0*
1/
1D
0)
1,
1<
1(
16
#518
0.
07
13
1=
1@
0A
1;
0>
b100110011001100100 G
1*
0/
0D
02
1+
15
0<
1C
0-
#520
17
1>
0,
1A
04
b101001100110010110 G
1/
1D
1)
0+
05
1<
06
#522
1.
1B
0>
03
1,
0=
07
1?
0;
0@
b101100110011001000 G
0*
0/
0D
1'
0)
0A
15
0C
0(
1:
#524
17
13
1A
1;
1>
b101111111111111010 G
1*
1/
1D
12
1+
0,
0<
01
16
#526
0.
07
14
03
1=
1@
0A
1-
0>
b110011001100101100 G
0*
0/
0D
1)
1,
05
1<
1C
#528
17
1>
13
0,
1A
0;
0:
b110110011001011110 G
1/
1D
02
0)
0+
19
15
0<
1(
06
#530
1.
0B
04
0=
07
0?
1;
0@
b111001100110010000 G
1*
0/
0D
1,
05
0C
#532
17
1=
1@
0A
b111100110011000010 G
0>
03
0*
1/
1D
1)
1+
0,
1<
16
#534
07
1:
13
1,
1A
0;
1>
b111111111111110100 G
1*
0D
12
11
15
0<
1C
10
#536
0.
0"
0@
0+
0-
14
03
0/
1D
0&
0(
17
0#
0$
0A
b000011001100100110 G
0>
0=
0%
0'
0)
1?
05
1;
06
#538
1B
13
0,
07
1A
1>
b000110011001011000 G
0*
1/
0D
02
1)
1+
15
1<
0C
#540
1.
17
0>
03
1=
1@
18
0;
0:
b001001100110001010 G
1*
0/
1D
0A
09
1,
0<
16
#542
07
1>
0,
1A
1(
04
b001100110010111100 G
1/
0D
0)
0+
05
1<
1C
#544
0.
17
13
1,
0=
0@
0?
1;
b001111111111101110 G
0*
0/
1D
12
1)
0A
15
01
1-
06
#546
14
0B
0>
03
0,
07
1=
0;
1@
b010011001100100000 G
1*
1/
0D
1+
05
0<
0C
1:
#548
1.
17
1A
b010110011001010010 G
1>
13
0*
0/
1D
1'
02
0)
1,
1<
0(
16
#550
07
03
0,
0=
0@
0+
1?
1;
0>
b011001100110000100 G
1/
0D
1)
0A
15
1C
#552
04
17
1>
0.
1A
0;
0:
b011100110010110110 G
1*
0/
1D
1+
19
05
0<
0-
06
#554
1B
11
13
1=
1@
0A
1(
0>
b011111111111101000 G
0*
07
0D
12
0)
1,
1/
15
1<
0C
00
#556
1#
03
1"
0@
0B
0+
0?
b100000000000000000 G
1$
0=
1%
0/
0'
1)
08
09
05
0<
b000110011001100100 F
1-
10
#558
1.
1B
1>
1=
17
18
0(
1:
b100011001100110010 G
1'
02
0)
1+
15
1<
16
#560
0.
0B
0:
08
1;
14
b100110011001100100 G
1*
12
1)
1A
19
0,
01
0-
0>
#562
1.
1B
1>
1(
0=
0+
b101001100110010110 G
04
13
0*
02
09
0;
#564
0.
0B
0>
1:
07
1+
0A
1;
1@
b101100110011001000 G
0'
1&
12
0)
0(
18
14
11
1-
00
